(footprint Broadcom_LGA-8_2x2mm_P0.53mm (version 20221018) (generator kicad-footprint-generator)
  (layer F.Cu)
  (descr "Broadcom  LGA, 8 Pin (https://docs.broadcom.com/docs/AV02-4755EN), generated with kicad-footprint-generator ipc_noLead_generator.py")
  (tags "Broadcom LGA NoLead")
  (attr smd)
  (fp_text reference REF** (at 0 -1.95) (layer F.SilkS)
    (effects (font (size 1 1) (thickness 0.15)))
  )
  (fp_text value Broadcom_LGA-8_2x2mm_P0.53mm (at 0 1.95) (layer F.Fab)
    (effects (font (size 1 1) (thickness 0.15)))
  )
  (fp_line (start -0.94 -1.28) (end 1 -1.28)
    (stroke (width 0.12) (type solid)) (layer F.SilkS))
  (fp_line (start -1 1.28) (end 1 1.28)
    (stroke (width 0.12) (type solid)) (layer F.SilkS))
  (fp_line (start -0.5 -1) (end 1 -1)
    (stroke (width 0.1) (type solid)) (layer F.Fab))
  (fp_line (start 1 -1) (end 1 1)
    (stroke (width 0.1) (type solid)) (layer F.Fab))
  (fp_line (start 1 1) (end -1 1)
    (stroke (width 0.1) (type solid)) (layer F.Fab))
  (fp_line (start -1 1) (end -1 -0.5)
    (stroke (width 0.1) (type solid)) (layer F.Fab))
  (fp_line (start -1 -0.5) (end -0.5 -1)
    (stroke (width 0.1) (type solid)) (layer F.Fab))
  (fp_line (start -1.28 -1.25) (end -1.28 1.25)
    (stroke (width 0.05) (type solid)) (layer F.CrtYd))
  (fp_line (start -1.28 1.25) (end 1.28 1.25)
    (stroke (width 0.05) (type solid)) (layer F.CrtYd))
  (fp_line (start 1.28 1.25) (end 1.28 -1.25)
    (stroke (width 0.05) (type solid)) (layer F.CrtYd))
  (fp_line (start 1.28 -1.25) (end -1.28 -1.25)
    (stroke (width 0.05) (type solid)) (layer F.CrtYd))
  (pad 1 smd roundrect (at -0.7625 -0.795) (size 0.525 0.45) (layers F.Cu F.Mask F.Paste) (roundrect_rratio 0.25))
  (pad 2 smd roundrect (at -0.7625 -0.265) (size 0.525 0.45) (layers F.Cu F.Mask F.Paste) (roundrect_rratio 0.25))
  (pad 3 smd roundrect (at -0.7625 0.265) (size 0.525 0.45) (layers F.Cu F.Mask F.Paste) (roundrect_rratio 0.25))
  (pad 4 smd roundrect (at -0.7625 0.795) (size 0.525 0.45) (layers F.Cu F.Mask F.Paste) (roundrect_rratio 0.25))
  (pad 5 smd roundrect (at 0.7625 0.795) (size 0.525 0.45) (layers F.Cu F.Mask F.Paste) (roundrect_rratio 0.25))
  (pad 6 smd roundrect (at 0.7625 0.265) (size 0.525 0.45) (layers F.Cu F.Mask F.Paste) (roundrect_rratio 0.25))
  (pad 7 smd roundrect (at 0.7625 -0.265) (size 0.525 0.45) (layers F.Cu F.Mask F.Paste) (roundrect_rratio 0.25))
  (pad 8 smd roundrect (at 0.7625 -0.795) (size 0.525 0.45) (layers F.Cu F.Mask F.Paste) (roundrect_rratio 0.25))
  (fp_poly (pts (xy -1.18 -1.18) (xy -1.54 -1.18) (xy -1.18 -1.54) (xy -1.18 -1.18))
    (stroke (width 0.12) (type solid)) (fill solid) (layer F.SilkS))
  (fp_text user ${REFERENCE} (at 0 0) (layer F.Fab)
    (effects (font (size 0.5 0.5) (thickness 0.08)))
  )
  (model ${KICAD7_3DMODEL_DIR}/OptoDevice.3dshapes/Broadcom_LGA-8_2x2mm_P0.53mm.wrl
    (offset (xyz 0 0 0))
    (scale (xyz 1 1 1))
    (rotate (xyz 0 0 0))
  )
)
