(footprint LQFP-80_14x14mm_P0.65mm (version 20221018) (generator kicad-footprint-generator)
  (layer F.Cu)
  (descr "LQFP, 80 Pin (https://www.analog.com/media/en/technical-documentation/data-sheets/AD9852.pdf), generated with kicad-footprint-generator ipc_gullwing_generator.py")
  (tags "LQFP QFP")
  (attr smd)
  (fp_text reference REF** (at 0 -9.4) (layer F.SilkS)
    (effects (font (size 1 1) (thickness 0.15)))
  )
  (fp_text value LQFP-80_14x14mm_P0.65mm (at 0 9.4) (layer F.Fab)
    (effects (font (size 1 1) (thickness 0.15)))
  )
  (fp_line (start 0 -8.7) (end -6.62 -8.7)
    (stroke (width 0.05) (type solid)) (layer F.CrtYd))
  (fp_line (start -6.62 -8.7) (end -6.62 -7.25)
    (stroke (width 0.05) (type solid)) (layer F.CrtYd))
  (fp_line (start -6.62 -7.25) (end -7.25 -7.25)
    (stroke (width 0.05) (type solid)) (layer F.CrtYd))
  (fp_line (start -7.25 -7.25) (end -7.25 -6.62)
    (stroke (width 0.05) (type solid)) (layer F.CrtYd))
  (fp_line (start -7.25 -6.62) (end -8.7 -6.62)
    (stroke (width 0.05) (type solid)) (layer F.CrtYd))
  (fp_line (start -8.7 -6.62) (end -8.7 0)
    (stroke (width 0.05) (type solid)) (layer F.CrtYd))
  (fp_line (start 0 -8.7) (end 6.62 -8.7)
    (stroke (width 0.05) (type solid)) (layer F.CrtYd))
  (fp_line (start 6.62 -8.7) (end 6.62 -7.25)
    (stroke (width 0.05) (type solid)) (layer F.CrtYd))
  (fp_line (start 6.62 -7.25) (end 7.25 -7.25)
    (stroke (width 0.05) (type solid)) (layer F.CrtYd))
  (fp_line (start 7.25 -7.25) (end 7.25 -6.62)
    (stroke (width 0.05) (type solid)) (layer F.CrtYd))
  (fp_line (start 7.25 -6.62) (end 8.7 -6.62)
    (stroke (width 0.05) (type solid)) (layer F.CrtYd))
  (fp_line (start 8.7 -6.62) (end 8.7 0)
    (stroke (width 0.05) (type solid)) (layer F.CrtYd))
  (fp_line (start 0 8.7) (end -6.62 8.7)
    (stroke (width 0.05) (type solid)) (layer F.CrtYd))
  (fp_line (start -6.62 8.7) (end -6.62 7.25)
    (stroke (width 0.05) (type solid)) (layer F.CrtYd))
  (fp_line (start -6.62 7.25) (end -7.25 7.25)
    (stroke (width 0.05) (type solid)) (layer F.CrtYd))
  (fp_line (start -7.25 7.25) (end -7.25 6.62)
    (stroke (width 0.05) (type solid)) (layer F.CrtYd))
  (fp_line (start -7.25 6.62) (end -8.7 6.62)
    (stroke (width 0.05) (type solid)) (layer F.CrtYd))
  (fp_line (start -8.7 6.62) (end -8.7 0)
    (stroke (width 0.05) (type solid)) (layer F.CrtYd))
  (fp_line (start 0 8.7) (end 6.62 8.7)
    (stroke (width 0.05) (type solid)) (layer F.CrtYd))
  (fp_line (start 6.62 8.7) (end 6.62 7.25)
    (stroke (width 0.05) (type solid)) (layer F.CrtYd))
  (fp_line (start 6.62 7.25) (end 7.25 7.25)
    (stroke (width 0.05) (type solid)) (layer F.CrtYd))
  (fp_line (start 7.25 7.25) (end 7.25 6.62)
    (stroke (width 0.05) (type solid)) (layer F.CrtYd))
  (fp_line (start 7.25 6.62) (end 8.7 6.62)
    (stroke (width 0.05) (type solid)) (layer F.CrtYd))
  (fp_line (start 8.7 6.62) (end 8.7 0)
    (stroke (width 0.05) (type solid)) (layer F.CrtYd))
  (fp_line (start 6.635 7.11) (end 7.11 7.11)
    (stroke (width 0.12) (type solid)) (layer F.SilkS))
  (fp_line (start 7.11 7.11) (end 7.11 6.635)
    (stroke (width 0.12) (type solid)) (layer F.SilkS))
  (fp_line (start -6.635 7.11) (end -7.11 7.11)
    (stroke (width 0.12) (type solid)) (layer F.SilkS))
  (fp_line (start -7.11 7.11) (end -7.11 6.635)
    (stroke (width 0.12) (type solid)) (layer F.SilkS))
  (fp_line (start 6.635 -7.11) (end 7.11 -7.11)
    (stroke (width 0.12) (type solid)) (layer F.SilkS))
  (fp_line (start 7.11 -7.11) (end 7.11 -6.635)
    (stroke (width 0.12) (type solid)) (layer F.SilkS))
  (fp_line (start -6.635 -7.11) (end -7.11 -7.11)
    (stroke (width 0.12) (type solid)) (layer F.SilkS))
  (fp_line (start -7.11 -7.11) (end -7.11 -6.635)
    (stroke (width 0.12) (type solid)) (layer F.SilkS))
  (fp_line (start -6 -7) (end 7 -7)
    (stroke (width 0.1) (type solid)) (layer F.Fab))
  (fp_line (start 7 -7) (end 7 7)
    (stroke (width 0.1) (type solid)) (layer F.Fab))
  (fp_line (start 7 7) (end -7 7)
    (stroke (width 0.1) (type solid)) (layer F.Fab))
  (fp_line (start -7 7) (end -7 -6)
    (stroke (width 0.1) (type solid)) (layer F.Fab))
  (fp_line (start -7 -6) (end -6 -7)
    (stroke (width 0.1) (type solid)) (layer F.Fab))
  (pad 1 smd roundrect (at -7.675 -6.175) (size 1.55 0.4) (layers F.Cu F.Mask F.Paste) (roundrect_rratio 0.25))
  (pad 2 smd roundrect (at -7.675 -5.525) (size 1.55 0.4) (layers F.Cu F.Mask F.Paste) (roundrect_rratio 0.25))
  (pad 3 smd roundrect (at -7.675 -4.875) (size 1.55 0.4) (layers F.Cu F.Mask F.Paste) (roundrect_rratio 0.25))
  (pad 4 smd roundrect (at -7.675 -4.225) (size 1.55 0.4) (layers F.Cu F.Mask F.Paste) (roundrect_rratio 0.25))
  (pad 5 smd roundrect (at -7.675 -3.575) (size 1.55 0.4) (layers F.Cu F.Mask F.Paste) (roundrect_rratio 0.25))
  (pad 6 smd roundrect (at -7.675 -2.925) (size 1.55 0.4) (layers F.Cu F.Mask F.Paste) (roundrect_rratio 0.25))
  (pad 7 smd roundrect (at -7.675 -2.275) (size 1.55 0.4) (layers F.Cu F.Mask F.Paste) (roundrect_rratio 0.25))
  (pad 8 smd roundrect (at -7.675 -1.625) (size 1.55 0.4) (layers F.Cu F.Mask F.Paste) (roundrect_rratio 0.25))
  (pad 9 smd roundrect (at -7.675 -0.975) (size 1.55 0.4) (layers F.Cu F.Mask F.Paste) (roundrect_rratio 0.25))
  (pad 10 smd roundrect (at -7.675 -0.325) (size 1.55 0.4) (layers F.Cu F.Mask F.Paste) (roundrect_rratio 0.25))
  (pad 11 smd roundrect (at -7.675 0.325) (size 1.55 0.4) (layers F.Cu F.Mask F.Paste) (roundrect_rratio 0.25))
  (pad 12 smd roundrect (at -7.675 0.975) (size 1.55 0.4) (layers F.Cu F.Mask F.Paste) (roundrect_rratio 0.25))
  (pad 13 smd roundrect (at -7.675 1.625) (size 1.55 0.4) (layers F.Cu F.Mask F.Paste) (roundrect_rratio 0.25))
  (pad 14 smd roundrect (at -7.675 2.275) (size 1.55 0.4) (layers F.Cu F.Mask F.Paste) (roundrect_rratio 0.25))
  (pad 15 smd roundrect (at -7.675 2.925) (size 1.55 0.4) (layers F.Cu F.Mask F.Paste) (roundrect_rratio 0.25))
  (pad 16 smd roundrect (at -7.675 3.575) (size 1.55 0.4) (layers F.Cu F.Mask F.Paste) (roundrect_rratio 0.25))
  (pad 17 smd roundrect (at -7.675 4.225) (size 1.55 0.4) (layers F.Cu F.Mask F.Paste) (roundrect_rratio 0.25))
  (pad 18 smd roundrect (at -7.675 4.875) (size 1.55 0.4) (layers F.Cu F.Mask F.Paste) (roundrect_rratio 0.25))
  (pad 19 smd roundrect (at -7.675 5.525) (size 1.55 0.4) (layers F.Cu F.Mask F.Paste) (roundrect_rratio 0.25))
  (pad 20 smd roundrect (at -7.675 6.175) (size 1.55 0.4) (layers F.Cu F.Mask F.Paste) (roundrect_rratio 0.25))
  (pad 21 smd roundrect (at -6.175 7.675) (size 0.4 1.55) (layers F.Cu F.Mask F.Paste) (roundrect_rratio 0.25))
  (pad 22 smd roundrect (at -5.525 7.675) (size 0.4 1.55) (layers F.Cu F.Mask F.Paste) (roundrect_rratio 0.25))
  (pad 23 smd roundrect (at -4.875 7.675) (size 0.4 1.55) (layers F.Cu F.Mask F.Paste) (roundrect_rratio 0.25))
  (pad 24 smd roundrect (at -4.225 7.675) (size 0.4 1.55) (layers F.Cu F.Mask F.Paste) (roundrect_rratio 0.25))
  (pad 25 smd roundrect (at -3.575 7.675) (size 0.4 1.55) (layers F.Cu F.Mask F.Paste) (roundrect_rratio 0.25))
  (pad 26 smd roundrect (at -2.925 7.675) (size 0.4 1.55) (layers F.Cu F.Mask F.Paste) (roundrect_rratio 0.25))
  (pad 27 smd roundrect (at -2.275 7.675) (size 0.4 1.55) (layers F.Cu F.Mask F.Paste) (roundrect_rratio 0.25))
  (pad 28 smd roundrect (at -1.625 7.675) (size 0.4 1.55) (layers F.Cu F.Mask F.Paste) (roundrect_rratio 0.25))
  (pad 29 smd roundrect (at -0.975 7.675) (size 0.4 1.55) (layers F.Cu F.Mask F.Paste) (roundrect_rratio 0.25))
  (pad 30 smd roundrect (at -0.325 7.675) (size 0.4 1.55) (layers F.Cu F.Mask F.Paste) (roundrect_rratio 0.25))
  (pad 31 smd roundrect (at 0.325 7.675) (size 0.4 1.55) (layers F.Cu F.Mask F.Paste) (roundrect_rratio 0.25))
  (pad 32 smd roundrect (at 0.975 7.675) (size 0.4 1.55) (layers F.Cu F.Mask F.Paste) (roundrect_rratio 0.25))
  (pad 33 smd roundrect (at 1.625 7.675) (size 0.4 1.55) (layers F.Cu F.Mask F.Paste) (roundrect_rratio 0.25))
  (pad 34 smd roundrect (at 2.275 7.675) (size 0.4 1.55) (layers F.Cu F.Mask F.Paste) (roundrect_rratio 0.25))
  (pad 35 smd roundrect (at 2.925 7.675) (size 0.4 1.55) (layers F.Cu F.Mask F.Paste) (roundrect_rratio 0.25))
  (pad 36 smd roundrect (at 3.575 7.675) (size 0.4 1.55) (layers F.Cu F.Mask F.Paste) (roundrect_rratio 0.25))
  (pad 37 smd roundrect (at 4.225 7.675) (size 0.4 1.55) (layers F.Cu F.Mask F.Paste) (roundrect_rratio 0.25))
  (pad 38 smd roundrect (at 4.875 7.675) (size 0.4 1.55) (layers F.Cu F.Mask F.Paste) (roundrect_rratio 0.25))
  (pad 39 smd roundrect (at 5.525 7.675) (size 0.4 1.55) (layers F.Cu F.Mask F.Paste) (roundrect_rratio 0.25))
  (pad 40 smd roundrect (at 6.175 7.675) (size 0.4 1.55) (layers F.Cu F.Mask F.Paste) (roundrect_rratio 0.25))
  (pad 41 smd roundrect (at 7.675 6.175) (size 1.55 0.4) (layers F.Cu F.Mask F.Paste) (roundrect_rratio 0.25))
  (pad 42 smd roundrect (at 7.675 5.525) (size 1.55 0.4) (layers F.Cu F.Mask F.Paste) (roundrect_rratio 0.25))
  (pad 43 smd roundrect (at 7.675 4.875) (size 1.55 0.4) (layers F.Cu F.Mask F.Paste) (roundrect_rratio 0.25))
  (pad 44 smd roundrect (at 7.675 4.225) (size 1.55 0.4) (layers F.Cu F.Mask F.Paste) (roundrect_rratio 0.25))
  (pad 45 smd roundrect (at 7.675 3.575) (size 1.55 0.4) (layers F.Cu F.Mask F.Paste) (roundrect_rratio 0.25))
  (pad 46 smd roundrect (at 7.675 2.925) (size 1.55 0.4) (layers F.Cu F.Mask F.Paste) (roundrect_rratio 0.25))
  (pad 47 smd roundrect (at 7.675 2.275) (size 1.55 0.4) (layers F.Cu F.Mask F.Paste) (roundrect_rratio 0.25))
  (pad 48 smd roundrect (at 7.675 1.625) (size 1.55 0.4) (layers F.Cu F.Mask F.Paste) (roundrect_rratio 0.25))
  (pad 49 smd roundrect (at 7.675 0.975) (size 1.55 0.4) (layers F.Cu F.Mask F.Paste) (roundrect_rratio 0.25))
  (pad 50 smd roundrect (at 7.675 0.325) (size 1.55 0.4) (layers F.Cu F.Mask F.Paste) (roundrect_rratio 0.25))
  (pad 51 smd roundrect (at 7.675 -0.325) (size 1.55 0.4) (layers F.Cu F.Mask F.Paste) (roundrect_rratio 0.25))
  (pad 52 smd roundrect (at 7.675 -0.975) (size 1.55 0.4) (layers F.Cu F.Mask F.Paste) (roundrect_rratio 0.25))
  (pad 53 smd roundrect (at 7.675 -1.625) (size 1.55 0.4) (layers F.Cu F.Mask F.Paste) (roundrect_rratio 0.25))
  (pad 54 smd roundrect (at 7.675 -2.275) (size 1.55 0.4) (layers F.Cu F.Mask F.Paste) (roundrect_rratio 0.25))
  (pad 55 smd roundrect (at 7.675 -2.925) (size 1.55 0.4) (layers F.Cu F.Mask F.Paste) (roundrect_rratio 0.25))
  (pad 56 smd roundrect (at 7.675 -3.575) (size 1.55 0.4) (layers F.Cu F.Mask F.Paste) (roundrect_rratio 0.25))
  (pad 57 smd roundrect (at 7.675 -4.225) (size 1.55 0.4) (layers F.Cu F.Mask F.Paste) (roundrect_rratio 0.25))
  (pad 58 smd roundrect (at 7.675 -4.875) (size 1.55 0.4) (layers F.Cu F.Mask F.Paste) (roundrect_rratio 0.25))
  (pad 59 smd roundrect (at 7.675 -5.525) (size 1.55 0.4) (layers F.Cu F.Mask F.Paste) (roundrect_rratio 0.25))
  (pad 60 smd roundrect (at 7.675 -6.175) (size 1.55 0.4) (layers F.Cu F.Mask F.Paste) (roundrect_rratio 0.25))
  (pad 61 smd roundrect (at 6.175 -7.675) (size 0.4 1.55) (layers F.Cu F.Mask F.Paste) (roundrect_rratio 0.25))
  (pad 62 smd roundrect (at 5.525 -7.675) (size 0.4 1.55) (layers F.Cu F.Mask F.Paste) (roundrect_rratio 0.25))
  (pad 63 smd roundrect (at 4.875 -7.675) (size 0.4 1.55) (layers F.Cu F.Mask F.Paste) (roundrect_rratio 0.25))
  (pad 64 smd roundrect (at 4.225 -7.675) (size 0.4 1.55) (layers F.Cu F.Mask F.Paste) (roundrect_rratio 0.25))
  (pad 65 smd roundrect (at 3.575 -7.675) (size 0.4 1.55) (layers F.Cu F.Mask F.Paste) (roundrect_rratio 0.25))
  (pad 66 smd roundrect (at 2.925 -7.675) (size 0.4 1.55) (layers F.Cu F.Mask F.Paste) (roundrect_rratio 0.25))
  (pad 67 smd roundrect (at 2.275 -7.675) (size 0.4 1.55) (layers F.Cu F.Mask F.Paste) (roundrect_rratio 0.25))
  (pad 68 smd roundrect (at 1.625 -7.675) (size 0.4 1.55) (layers F.Cu F.Mask F.Paste) (roundrect_rratio 0.25))
  (pad 69 smd roundrect (at 0.975 -7.675) (size 0.4 1.55) (layers F.Cu F.Mask F.Paste) (roundrect_rratio 0.25))
  (pad 70 smd roundrect (at 0.325 -7.675) (size 0.4 1.55) (layers F.Cu F.Mask F.Paste) (roundrect_rratio 0.25))
  (pad 71 smd roundrect (at -0.325 -7.675) (size 0.4 1.55) (layers F.Cu F.Mask F.Paste) (roundrect_rratio 0.25))
  (pad 72 smd roundrect (at -0.975 -7.675) (size 0.4 1.55) (layers F.Cu F.Mask F.Paste) (roundrect_rratio 0.25))
  (pad 73 smd roundrect (at -1.625 -7.675) (size 0.4 1.55) (layers F.Cu F.Mask F.Paste) (roundrect_rratio 0.25))
  (pad 74 smd roundrect (at -2.275 -7.675) (size 0.4 1.55) (layers F.Cu F.Mask F.Paste) (roundrect_rratio 0.25))
  (pad 75 smd roundrect (at -2.925 -7.675) (size 0.4 1.55) (layers F.Cu F.Mask F.Paste) (roundrect_rratio 0.25))
  (pad 76 smd roundrect (at -3.575 -7.675) (size 0.4 1.55) (layers F.Cu F.Mask F.Paste) (roundrect_rratio 0.25))
  (pad 77 smd roundrect (at -4.225 -7.675) (size 0.4 1.55) (layers F.Cu F.Mask F.Paste) (roundrect_rratio 0.25))
  (pad 78 smd roundrect (at -4.875 -7.675) (size 0.4 1.55) (layers F.Cu F.Mask F.Paste) (roundrect_rratio 0.25))
  (pad 79 smd roundrect (at -5.525 -7.675) (size 0.4 1.55) (layers F.Cu F.Mask F.Paste) (roundrect_rratio 0.25))
  (pad 80 smd roundrect (at -6.175 -7.675) (size 0.4 1.55) (layers F.Cu F.Mask F.Paste) (roundrect_rratio 0.25))
  (fp_poly (pts (xy -7.725 -6.635) (xy -7.959 -6.9626) (xy -7.491 -6.9626) (xy -7.725 -6.635))
    (stroke (width 0.12) (type solid)) (fill solid) (layer F.SilkS))
  (fp_text user ${REFERENCE} (at 0 0) (layer F.Fab)
    (effects (font (size 1 1) (thickness 0.15)))
  )
  (model ${KICAD7_3DMODEL_DIR}/Package_QFP.3dshapes/LQFP-80_14x14mm_P0.65mm.wrl
    (offset (xyz 0 0 0))
    (scale (xyz 1 1 1))
    (rotate (xyz 0 0 0))
  )
)
