(footprint "ST-SiP-LGA-86-11x7.3mm" (version 20221018) (generator pcbnew)
  (layer "F.Cu")
  (descr "STM32WB5MMG  Module, LGA86L 11x7.3")
  (tags "bluetooth bluetooth5 bluetooth5.0 802.15.4 zigbee thread module stm32 rf")
  (attr smd)
  (fp_text reference "REF**" (at 0 -6.5) (layer "F.SilkS")
      (effects (font (size 1 1) (thickness 0.15)))
    (tstamp 1264024f-819f-41c7-938a-607cf5554144)
  )
  (fp_text value "ST-SiP-LGA-86-11x7.3mm" (at -0.15 6.565) (layer "F.Fab")
      (effects (font (size 1 1) (thickness 0.15)))
    (tstamp c2e2f612-88dd-4334-9d8b-c396f27df13c)
  )
  (fp_text user "${REFERENCE}" (at 0 0 -90) (layer "F.Fab")
      (effects (font (size 1 1) (thickness 0.15)))
    (tstamp e57c535b-a516-4c90-b5d7-d1c142d9827d)
  )
  (fp_line (start -3.97 -3.83) (end -3.97 -5.83)
    (stroke (width 0.12) (type solid)) (layer "F.SilkS") (tstamp 20ce557c-38b6-46d3-b01b-854755f605de))
  (fp_line (start -3.77 -5.625) (end -3.77 -2.87)
    (stroke (width 0.12) (type solid)) (layer "F.SilkS") (tstamp 1960f081-f1a1-444a-8083-8cdc62539a84))
  (fp_line (start -3.77 5.62) (end -3.77 2.87)
    (stroke (width 0.12) (type solid)) (layer "F.SilkS") (tstamp 9cf370b6-9fa7-4e27-a491-d9226dc6c37a))
  (fp_line (start -1.97 -5.83) (end -3.97 -5.83)
    (stroke (width 0.12) (type solid)) (layer "F.SilkS") (tstamp 4ce16364-01b1-433f-9301-f5aefb702b4f))
  (fp_line (start -1.97 -5.625) (end -3.77 -5.625)
    (stroke (width 0.12) (type solid)) (layer "F.SilkS") (tstamp d21b3854-0f76-40a7-820c-0b83dd1c358b))
  (fp_line (start -1.945 5.62) (end -3.77 5.62)
    (stroke (width 0.12) (type solid)) (layer "F.SilkS") (tstamp a274b44a-f915-47c5-8b24-cefa5861f9fb))
  (fp_line (start 1.945 -5.62) (end 3.77 -5.62)
    (stroke (width 0.12) (type solid)) (layer "F.SilkS") (tstamp e8695140-d241-408e-9d9f-b673192fb1ed))
  (fp_line (start 1.945 5.62) (end 3.77 5.62)
    (stroke (width 0.12) (type solid)) (layer "F.SilkS") (tstamp 6a83c40e-4505-454e-a6d5-d05f0d6f20a2))
  (fp_line (start 3.77 -5.62) (end 3.77 -2.87)
    (stroke (width 0.12) (type solid)) (layer "F.SilkS") (tstamp 4dc89d1d-7b28-4062-8705-5dcf298fcfa0))
  (fp_line (start 3.77 5.62) (end 3.77 2.87)
    (stroke (width 0.12) (type solid)) (layer "F.SilkS") (tstamp 0957728e-03be-4b63-9287-f59c3ca5465a))
  (fp_line (start -3.9 -5.75) (end 3.9 -5.75)
    (stroke (width 0.05) (type solid)) (layer "F.CrtYd") (tstamp 530ccc4b-c6f6-41e9-ad51-fe0388619ff8))
  (fp_line (start -3.9 5.75) (end -3.9 -5.75)
    (stroke (width 0.05) (type solid)) (layer "F.CrtYd") (tstamp 403a4500-1aec-46e4-85a2-bca840cfe079))
  (fp_line (start 3.9 -5.75) (end 3.9 5.75)
    (stroke (width 0.05) (type solid)) (layer "F.CrtYd") (tstamp e0dae8ba-3bd4-4d4b-8dc6-8655373ea0c1))
  (fp_line (start 3.9 5.75) (end -3.9 5.75)
    (stroke (width 0.05) (type solid)) (layer "F.CrtYd") (tstamp 51810b85-ad2b-40fd-bbeb-f1eb4abf89b0))
  (fp_line (start -3.65 -4.5) (end -3.65 5.5)
    (stroke (width 0.1) (type solid)) (layer "F.Fab") (tstamp 96de1294-a408-49e1-87be-70785556f45c))
  (fp_line (start -3.65 5.5) (end 3.65 5.5)
    (stroke (width 0.1) (type solid)) (layer "F.Fab") (tstamp 196125df-0267-4886-9932-fb917c9451bb))
  (fp_line (start -2.65 -5.5) (end -3.65 -4.5)
    (stroke (width 0.1) (type solid)) (layer "F.Fab") (tstamp 0b89c455-afd7-471e-97c1-36e31c503139))
  (fp_line (start 3.65 -5.5) (end -2.65 -5.5)
    (stroke (width 0.1) (type solid)) (layer "F.Fab") (tstamp 0db8d74f-4fac-4d81-ba9e-71c1dd07c61a))
  (fp_line (start 3.65 5.5) (end 3.65 -5.5)
    (stroke (width 0.1) (type solid)) (layer "F.Fab") (tstamp 298cf831-4bf4-4bf4-b824-c7a68093db67))
  (pad "1" smd rect (at -3.175 -2.075) (size 0.35 0.35) (layers "F.Cu" "F.Paste" "F.Mask") (tstamp 380fbf39-cb24-4be4-a5c8-5da0748f9180))
  (pad "2" smd rect (at -3.175 -1.6) (size 0.35 0.3) (layers "F.Cu" "F.Paste" "F.Mask") (tstamp 0e2539a8-586a-4dfc-b6ea-64a8d3f45bc6))
  (pad "3" smd rect (at -3.175 -1.15) (size 0.35 0.3) (layers "F.Cu" "F.Paste" "F.Mask") (tstamp 6a29d59f-7a2d-47b3-b993-01ee47456ae1))
  (pad "4" smd rect (at -3.175 -0.7) (size 0.35 0.3) (layers "F.Cu" "F.Paste" "F.Mask") (tstamp a1daf078-0095-4b1a-af37-36f110f3a073))
  (pad "5" smd rect (at -3.175 -0.25) (size 0.35 0.3) (layers "F.Cu" "F.Paste" "F.Mask") (tstamp 31e99673-425c-4a26-b359-9750fe4fb7a8))
  (pad "6" smd rect (at -3.175 0.2) (size 0.35 0.3) (layers "F.Cu" "F.Paste" "F.Mask") (tstamp 512e2fd9-1d19-493f-8627-618799b4a35c))
  (pad "7" smd rect (at -3.175 0.65) (size 0.35 0.3) (layers "F.Cu" "F.Paste" "F.Mask") (tstamp ca7f8a2c-04ec-4761-aec7-768750d51433))
  (pad "8" smd rect (at -3.175 1.1) (size 0.35 0.3) (layers "F.Cu" "F.Paste" "F.Mask") (tstamp e74d618a-2ffd-448d-a99b-4bc268afb02b))
  (pad "9" smd rect (at -3.175 1.55) (size 0.35 0.3) (layers "F.Cu" "F.Paste" "F.Mask") (tstamp 5a739909-4e9a-4a19-8fa6-380d5ae2f252))
  (pad "10" smd rect (at -3.175 2) (size 0.35 0.3) (layers "F.Cu" "F.Paste" "F.Mask") (tstamp 94f336c1-9917-4e73-a8b0-4067cc72a23b))
  (pad "11" smd rect (at -3.175 2.45) (size 0.35 0.3) (layers "F.Cu" "F.Paste" "F.Mask") (tstamp e6b0bfdc-2fc0-4ea6-8da3-05317137935e))
  (pad "12" smd rect (at -3.175 2.9) (size 0.35 0.3) (layers "F.Cu" "F.Paste" "F.Mask") (tstamp fadf63aa-b123-4373-ae44-f50adf83ab0c))
  (pad "13" smd rect (at -3.175 3.35) (size 0.35 0.3) (layers "F.Cu" "F.Paste" "F.Mask") (tstamp 10e59956-c001-4fb7-94cc-b2203cbb0122))
  (pad "14" smd rect (at -3.175 3.8) (size 0.35 0.3) (layers "F.Cu" "F.Paste" "F.Mask") (tstamp 10b3bfe1-a2ff-4f39-9fd1-b2474875f549))
  (pad "15" smd rect (at -3.175 4.25) (size 0.35 0.3) (layers "F.Cu" "F.Paste" "F.Mask") (tstamp 04f3497a-e0b5-481c-9cb9-b7ae717cc3ef))
  (pad "16" smd rect (at -3.175 4.7) (size 0.35 0.3) (layers "F.Cu" "F.Paste" "F.Mask") (tstamp 4e716847-95c4-4ec2-9183-e9215e541084))
  (pad "17" smd rect (at -3.175 5.175) (size 0.35 0.35) (layers "F.Cu" "F.Paste" "F.Mask") (tstamp 0b50ebc5-1554-4bd7-9bf4-d2e824dc972d))
  (pad "18" smd rect (at -2.7 5.175) (size 0.3 0.35) (layers "F.Cu" "F.Paste" "F.Mask") (tstamp 3f175194-d1e9-4c91-b83e-9da3a92a8e29))
  (pad "19" smd rect (at -2.25 5.175) (size 0.3 0.35) (layers "F.Cu" "F.Paste" "F.Mask") (tstamp c2350033-7913-49b9-8ae4-f2f534defa4c))
  (pad "20" smd rect (at -1.8 5.175) (size 0.3 0.35) (layers "F.Cu" "F.Paste" "F.Mask") (tstamp e2acb230-b80d-4c67-a99a-70a1d3f88a7f))
  (pad "21" smd rect (at -1.35 5.175) (size 0.3 0.35) (layers "F.Cu" "F.Paste" "F.Mask") (tstamp 05e90a8c-4135-4ebc-a4ff-6c3dca1bdfdb))
  (pad "22" smd rect (at -0.9 5.175) (size 0.3 0.35) (layers "F.Cu" "F.Paste" "F.Mask") (tstamp 8a7d04f4-c196-4c64-b3ed-d78c68678808))
  (pad "23" smd rect (at -0.45 5.175) (size 0.3 0.35) (layers "F.Cu" "F.Paste" "F.Mask") (tstamp 70121203-5eed-47d8-bc1c-9e8dbce504c4))
  (pad "24" smd rect (at 0 5.175) (size 0.3 0.35) (layers "F.Cu" "F.Paste" "F.Mask") (tstamp 7ec7845e-cd19-4c5e-84e7-5e73d29b03cf))
  (pad "25" smd rect (at 0.45 5.175) (size 0.3 0.35) (layers "F.Cu" "F.Paste" "F.Mask") (tstamp 81932b67-ef57-439c-953f-229a11962279))
  (pad "26" smd rect (at 0.9 5.175) (size 0.3 0.35) (layers "F.Cu" "F.Paste" "F.Mask") (tstamp 57dd089d-91e8-4902-8cff-e81272725c67))
  (pad "27" smd rect (at 1.35 5.175) (size 0.3 0.35) (layers "F.Cu" "F.Paste" "F.Mask") (tstamp 7e2d9077-0bfb-4447-8762-1e3c1e499deb))
  (pad "28" smd rect (at 1.8 5.175) (size 0.3 0.35) (layers "F.Cu" "F.Paste" "F.Mask") (tstamp d507433b-f71f-4ee5-bc7b-af22dd7f8476))
  (pad "29" smd rect (at 2.25 5.175) (size 0.3 0.35) (layers "F.Cu" "F.Paste" "F.Mask") (tstamp 61e98826-f1e9-41a2-8341-33f2d2da1566))
  (pad "30" smd rect (at 2.7 5.175) (size 0.3 0.35) (layers "F.Cu" "F.Paste" "F.Mask") (tstamp 320dd26c-2982-4109-a5b7-59085eecb6ed))
  (pad "31" smd rect (at 3.175 5.175) (size 0.35 0.35) (layers "F.Cu" "F.Paste" "F.Mask") (tstamp 7dafeb94-d8c2-4a99-9beb-9b09788e1e62))
  (pad "32" smd rect (at 3.175 4.7) (size 0.35 0.3) (layers "F.Cu" "F.Paste" "F.Mask") (tstamp e622f20b-1bfa-4cea-afa1-859701a63908))
  (pad "33" smd rect (at 3.175 4.25) (size 0.35 0.3) (layers "F.Cu" "F.Paste" "F.Mask") (tstamp 2be88bf6-09b3-4d3f-9291-85a3dafa764f))
  (pad "34" smd rect (at 3.175 3.8) (size 0.35 0.3) (layers "F.Cu" "F.Paste" "F.Mask") (tstamp 1a114ddf-f35b-42b4-9a21-e429532b25b1))
  (pad "35" smd rect (at 3.175 3.35) (size 0.35 0.3) (layers "F.Cu" "F.Paste" "F.Mask") (tstamp 133b0180-c914-48f4-bf52-0c2722610747))
  (pad "36" smd rect (at 3.175 2.9) (size 0.35 0.3) (layers "F.Cu" "F.Paste" "F.Mask") (tstamp ce5e23a9-b737-430c-902d-7f0c5636727b))
  (pad "37" smd rect (at 3.175 2.45) (size 0.35 0.3) (layers "F.Cu" "F.Paste" "F.Mask") (tstamp ca20b8ba-11f3-4316-9af9-e3b674d25646))
  (pad "38" smd rect (at 3.175 2) (size 0.35 0.3) (layers "F.Cu" "F.Paste" "F.Mask") (tstamp f03f708f-17a5-4df8-9fc3-f36adae2da76))
  (pad "39" smd rect (at 3.175 1.55) (size 0.35 0.3) (layers "F.Cu" "F.Paste" "F.Mask") (tstamp c1581ddb-ce58-41d2-9221-3850ce4433cd))
  (pad "40" smd rect (at 3.175 1.1) (size 0.35 0.3) (layers "F.Cu" "F.Paste" "F.Mask") (tstamp c0328504-ed18-4c48-83ca-a4a855c569d0))
  (pad "41" smd rect (at 3.175 0.65) (size 0.35 0.3) (layers "F.Cu" "F.Paste" "F.Mask") (tstamp 4968b46a-ec8c-4bd3-a76e-eaea0e5ae4ae))
  (pad "42" smd rect (at 3.175 0.2) (size 0.35 0.3) (layers "F.Cu" "F.Paste" "F.Mask") (tstamp 5e42ec41-16e0-484c-ad2f-d2aacf0eb76e))
  (pad "43" smd rect (at 3.175 -0.25) (size 0.35 0.3) (layers "F.Cu" "F.Paste" "F.Mask") (tstamp 824f9580-fc97-49a9-a639-83bed45b9d80))
  (pad "44" smd rect (at 3.175 -0.7) (size 0.35 0.3) (layers "F.Cu" "F.Paste" "F.Mask") (tstamp 1269b685-e532-4a65-a08a-be8ad736d7a5))
  (pad "45" smd rect (at 3.175 -1.15) (size 0.35 0.3) (layers "F.Cu" "F.Paste" "F.Mask") (tstamp 0502e174-547b-45bd-8596-8191cfc3b67c))
  (pad "46" smd rect (at 3.175 -1.6) (size 0.35 0.3) (layers "F.Cu" "F.Paste" "F.Mask") (tstamp fd545239-50ac-4e9c-83d8-12069d0a03d0))
  (pad "47" smd rect (at 3.175 -2.075) (size 0.35 0.35) (layers "F.Cu" "F.Paste" "F.Mask") (tstamp 9046244a-5c5d-470e-80c6-69d2554ec0f7))
  (pad "48" smd rect (at 2.7 -2.075) (size 0.3 0.35) (layers "F.Cu" "F.Paste" "F.Mask") (tstamp 7d0d6583-596d-4150-9784-05fc46e73a7e))
  (pad "49" smd rect (at 2.25 -2.075) (size 0.3 0.35) (layers "F.Cu" "F.Paste" "F.Mask") (tstamp fad1a9d8-3974-4358-a356-d37e0978187c))
  (pad "50" smd rect (at 1.8 -2.075) (size 0.3 0.35) (layers "F.Cu" "F.Paste" "F.Mask") (tstamp 2a7549a0-22ed-474d-8067-cea7b2214057))
  (pad "51" smd rect (at 1.35 -2.075) (size 0.3 0.35) (layers "F.Cu" "F.Paste" "F.Mask") (tstamp c413f065-2e0e-42de-9eda-921b479481fe))
  (pad "52" smd rect (at 0.9 -2.075) (size 0.3 0.35) (layers "F.Cu" "F.Paste" "F.Mask") (tstamp a73f6255-73cc-4d77-b2d0-a3b2089be1da))
  (pad "53" smd rect (at 0.45 -2.075) (size 0.3 0.35) (layers "F.Cu" "F.Paste" "F.Mask") (tstamp 15df6e60-23ab-41fb-b5a1-7d39b6057cdf))
  (pad "54" smd rect (at 0 -2.075) (size 0.3 0.35) (layers "F.Cu" "F.Paste" "F.Mask") (tstamp ba164014-9016-4160-ae56-ba19dd90e8ca))
  (pad "55" smd rect (at -0.45 -2.075) (size 0.3 0.35) (layers "F.Cu" "F.Paste" "F.Mask") (tstamp f6da89a5-522c-4753-a4c2-c699b9f4efc9))
  (pad "56" smd rect (at -0.9 -2.075) (size 0.3 0.35) (layers "F.Cu" "F.Paste" "F.Mask") (tstamp b69e5f3d-ee64-4791-8b41-1c4aed178e12))
  (pad "57" smd rect (at -1.35 -2.075) (size 0.3 0.35) (layers "F.Cu" "F.Paste" "F.Mask") (tstamp 1b28678d-8c1d-4e75-89d8-f6562501a999))
  (pad "58" smd rect (at -1.8 -2.075) (size 0.3 0.35) (layers "F.Cu" "F.Paste" "F.Mask") (tstamp 17d5afd6-6aab-4977-992c-a950198406b1))
  (pad "59" smd rect (at -2.25 -2.075) (size 0.3 0.35) (layers "F.Cu" "F.Paste" "F.Mask") (tstamp 3bbe1151-9c75-4817-8c0c-ed419e62ae58))
  (pad "60" smd rect (at -2.7 -2.075) (size 0.3 0.35) (layers "F.Cu" "F.Paste" "F.Mask") (tstamp ce6e93cd-3b58-4d90-99ba-f16a0bf0d595))
  (pad "61" smd rect (at -1.35 -0.7) (size 0.6 0.6) (layers "F.Cu" "F.Paste" "F.Mask") (tstamp 14f80578-d958-4719-bb63-21c1b5c2c04f))
  (pad "62" smd rect (at -1.35 0.2) (size 0.6 0.6) (layers "F.Cu" "F.Paste" "F.Mask") (tstamp bf816063-1758-45af-9c2d-9fa5e52328ed))
  (pad "63" smd rect (at -1.35 1.1) (size 0.6 0.6) (layers "F.Cu" "F.Paste" "F.Mask") (tstamp 4a146a44-965f-46f8-b164-1046dccfacbf))
  (pad "64" smd rect (at -1.35 2) (size 0.6 0.6) (layers "F.Cu" "F.Paste" "F.Mask") (tstamp b19c2a2a-fcf2-4bd1-aaf0-1748b88ecaa1))
  (pad "65" smd rect (at -1.35 2.9) (size 0.6 0.6) (layers "F.Cu" "F.Paste" "F.Mask") (tstamp 4ffb2321-1721-4bd1-b3e6-2744bb1c1701))
  (pad "66" smd rect (at -1.35 3.8) (size 0.6 0.6) (layers "F.Cu" "F.Paste" "F.Mask") (tstamp fb56d3f4-7588-45dc-a29e-0191d4f83d53))
  (pad "67" smd rect (at -0.45 3.8) (size 0.6 0.6) (layers "F.Cu" "F.Paste" "F.Mask") (tstamp 2db45c5a-9e55-4ff8-a283-76505f25b385))
  (pad "68" smd rect (at 0.45 3.8) (size 0.6 0.6) (layers "F.Cu" "F.Paste" "F.Mask") (tstamp 20880fff-83c6-4228-bf36-09400688421c))
  (pad "69" smd rect (at 1.35 3.8) (size 0.6 0.6) (layers "F.Cu" "F.Paste" "F.Mask") (tstamp 9c8d88b4-fdb1-4f76-bd74-df0e9edf4081))
  (pad "70" smd rect (at 1.35 2.9) (size 0.6 0.6) (layers "F.Cu" "F.Paste" "F.Mask") (tstamp f4e6b25b-9e89-45d6-9c90-f3d6e69839a9))
  (pad "71" smd rect (at 1.35 2) (size 0.6 0.6) (layers "F.Cu" "F.Paste" "F.Mask") (tstamp 94c8322f-2ce6-4a08-b507-c5494829ca24))
  (pad "72" smd rect (at 1.35 1.1) (size 0.6 0.6) (layers "F.Cu" "F.Paste" "F.Mask") (tstamp 14d48d57-cc67-44c4-802e-2b3eeb59ef0c))
  (pad "73" smd rect (at 1.35 0.2) (size 0.6 0.6) (layers "F.Cu" "F.Paste" "F.Mask") (tstamp d0f94485-d5cc-4839-a962-8c830037363d))
  (pad "74" smd rect (at 1.35 -0.7) (size 0.6 0.6) (layers "F.Cu" "F.Paste" "F.Mask") (tstamp d5e0ccbc-6739-4b3b-a968-9647e64b7dd5))
  (pad "75" smd rect (at 0.45 -0.7) (size 0.6 0.6) (layers "F.Cu" "F.Paste" "F.Mask") (tstamp 26fe2a87-07f6-4cb2-a25b-ffac8492c357))
  (pad "76" smd rect (at -0.45 -0.7) (size 0.6 0.6) (layers "F.Cu" "F.Paste" "F.Mask") (tstamp 81ff48b6-f11c-4be0-b01b-51cac8c7735d))
  (pad "77" smd rect (at -0.45 0.2) (size 0.6 0.6) (layers "F.Cu" "F.Paste" "F.Mask") (tstamp cd98df7b-5bd6-4869-bcfc-6d1fa6c33a22))
  (pad "78" smd rect (at -0.45 1.1) (size 0.6 0.6) (layers "F.Cu" "F.Paste" "F.Mask") (tstamp d55a9fc2-dc77-4fa2-9b7f-3d6576e00a03))
  (pad "79" smd rect (at -0.45 2) (size 0.6 0.6) (layers "F.Cu" "F.Paste" "F.Mask") (tstamp 992b3f6d-87a6-4cb0-9117-1956d061b030))
  (pad "80" smd rect (at -0.45 2.9) (size 0.6 0.6) (layers "F.Cu" "F.Paste" "F.Mask") (tstamp 682f09b0-c713-4bc2-9516-39ed3aa5cb25))
  (pad "81" smd rect (at 0.45 2.9) (size 0.6 0.6) (layers "F.Cu" "F.Paste" "F.Mask") (tstamp 13ceeede-5045-479e-b5d7-e7aada3901ba))
  (pad "82" smd rect (at 0.45 2) (size 0.6 0.6) (layers "F.Cu" "F.Paste" "F.Mask") (tstamp a88fb740-3c3e-4393-a18f-ea116373e965))
  (pad "83" smd rect (at 0.45 1.1) (size 0.6 0.6) (layers "F.Cu" "F.Paste" "F.Mask") (tstamp 8424086c-15ff-4071-9346-1ab286e1d5ad))
  (pad "84" smd rect (at 0.45 0.2) (size 0.6 0.6) (layers "F.Cu" "F.Paste" "F.Mask") (tstamp 408700bd-5ce7-4b4e-af55-a4b2fc0b3045))
  (pad "85" smd rect (at -3.05 -5.035) (size 0.43 0.43) (layers "F.Cu" "F.Paste" "F.Mask") (tstamp d96c12e6-68a0-4ad5-bc17-b2078279b7c8))
  (pad "86" smd rect (at 3.05 -5.035) (size 0.43 0.43) (layers "F.Cu" "F.Paste" "F.Mask") (tstamp 5c00a72a-01d4-4b48-b819-2fb0cbcbac73))
  (zone (net 0) (net_name "") (layers "*.Cu") (tstamp a5e8f8dc-3856-451a-a986-40f087486c80) (hatch full 0.508)
    (connect_pads (clearance 0))
    (min_thickness 0.254) (filled_areas_thickness no)
    (keepout (tracks not_allowed) (vias not_allowed) (pads allowed) (copperpour not_allowed) (footprints not_allowed))
    (fill (thermal_gap 0.508) (thermal_bridge_width 0.508))
    (polygon
      (pts
        (xy 2.65 -3)
        (xy -4.95 -3)
        (xy -4.95 -6.5)
        (xy 2.65 -6.5)
      )
    )
  )
  (model "${KICAD7_3DMODEL_DIR}/RF_Module.3dshapes/ST-SiP-LGA-86-11x7.3mm.wrl"
    (offset (xyz 0 0 0))
    (scale (xyz 1 1 1))
    (rotate (xyz 0 0 0))
  )
)
