(footprint VSON-8_1.5x2mm_P0.5mm (version 20221018) (generator kicad-footprint-generator)
  (layer F.Cu)
  (descr "VSON, 8 Pin (http://www.ti.com/lit/ds/symlink/tps62840.pdf#page=37), generated with kicad-footprint-generator ipc_noLead_generator.py")
  (tags "VSON NoLead")
  (attr smd)
  (fp_text reference REF** (at 0 -1.95) (layer F.SilkS)
    (effects (font (size 1 1) (thickness 0.15)))
  )
  (fp_text value VSON-8_1.5x2mm_P0.5mm (at 0 1.95) (layer F.Fab)
    (effects (font (size 1 1) (thickness 0.15)))
  )
  (fp_line (start -0.75 -1.185) (end 0.75 -1.185)
    (stroke (width 0.12) (type solid)) (layer F.SilkS))
  (fp_line (start -0.75 1.185) (end 0.75 1.185)
    (stroke (width 0.12) (type solid)) (layer F.SilkS))
  (fp_line (start -0.375 -1) (end 0.75 -1)
    (stroke (width 0.1) (type solid)) (layer F.Fab))
  (fp_line (start 0.75 -1) (end 0.75 1)
    (stroke (width 0.1) (type solid)) (layer F.Fab))
  (fp_line (start 0.75 1) (end -0.75 1)
    (stroke (width 0.1) (type solid)) (layer F.Fab))
  (fp_line (start -0.75 1) (end -0.75 -0.625)
    (stroke (width 0.1) (type solid)) (layer F.Fab))
  (fp_line (start -0.75 -0.625) (end -0.375 -1)
    (stroke (width 0.1) (type solid)) (layer F.Fab))
  (fp_line (start -1.08 -1.25) (end -1.08 1.25)
    (stroke (width 0.05) (type solid)) (layer F.CrtYd))
  (fp_line (start -1.08 1.25) (end 1.08 1.25)
    (stroke (width 0.05) (type solid)) (layer F.CrtYd))
  (fp_line (start 1.08 1.25) (end 1.08 -1.25)
    (stroke (width 0.05) (type solid)) (layer F.CrtYd))
  (fp_line (start 1.08 -1.25) (end -1.08 -1.25)
    (stroke (width 0.05) (type solid)) (layer F.CrtYd))
  (pad 1 smd roundrect (at -0.5375 -0.75) (size 0.575 0.35) (layers F.Cu F.Mask F.Paste) (roundrect_rratio 0.25))
  (pad 2 smd roundrect (at -0.5375 -0.25) (size 0.575 0.35) (layers F.Cu F.Mask F.Paste) (roundrect_rratio 0.25))
  (pad 3 smd roundrect (at -0.5375 0.25) (size 0.575 0.35) (layers F.Cu F.Mask F.Paste) (roundrect_rratio 0.25))
  (pad 4 smd roundrect (at -0.5375 0.75) (size 0.575 0.35) (layers F.Cu F.Mask F.Paste) (roundrect_rratio 0.25))
  (pad 5 smd roundrect (at 0.5375 0.75) (size 0.575 0.35) (layers F.Cu F.Mask F.Paste) (roundrect_rratio 0.25))
  (pad 6 smd roundrect (at 0.5375 0.25) (size 0.575 0.35) (layers F.Cu F.Mask F.Paste) (roundrect_rratio 0.25))
  (pad 7 smd roundrect (at 0.5375 -0.25) (size 0.575 0.35) (layers F.Cu F.Mask F.Paste) (roundrect_rratio 0.25))
  (pad 8 smd roundrect (at 0.5375 -0.75) (size 0.575 0.35) (layers F.Cu F.Mask F.Paste) (roundrect_rratio 0.25))
  (fp_poly (pts (xy -0.99 -1.09) (xy -1.35 -1.09) (xy -0.99 -1.45) (xy -0.99 -1.09))
    (stroke (width 0.12) (type solid)) (fill solid) (layer F.SilkS))
  (fp_text user ${REFERENCE} (at 0 0 90) (layer F.Fab)
    (effects (font (size 0.5 0.5) (thickness 0.08)))
  )
  (model ${KICAD7_3DMODEL_DIR}/Package_SON.3dshapes/VSON-8_1.5x2mm_P0.5mm.wrl
    (offset (xyz 0 0 0))
    (scale (xyz 1 1 1))
    (rotate (xyz 0 0 0))
  )
)
