(footprint Transformer_Ethernet_YDS_30F-51NL_SO-24_7.1x15.1mm (version 20221018) (generator kicad-footprint-generator)
  (layer F.Cu)
  (descr "YDS 30F-51NL SO, 24 Pin (https://datasheet.lcsc.com/lcsc/1811051610_Shanghai-YDS-Tech-30F-51NL_C123168.pdf), generated with kicad-footprint-generator ipc_gullwing_generator.py")
  (tags "YDS SO Transformer_SMD")
  (attr smd)
  (fp_text reference REF** (at 0 -8.5) (layer F.SilkS)
    (effects (font (size 1 1) (thickness 0.15)))
  )
  (fp_text value Transformer_Ethernet_YDS_30F-51NL_SO-24_7.1x15.1mm (at 0 8.5) (layer F.Fab)
    (effects (font (size 1 1) (thickness 0.15)))
  )
  (fp_line (start -5.95 -7.8) (end -5.95 7.8)
    (stroke (width 0.05) (type solid)) (layer F.CrtYd))
  (fp_line (start -5.95 7.8) (end 5.95 7.8)
    (stroke (width 0.05) (type solid)) (layer F.CrtYd))
  (fp_line (start 5.95 7.8) (end 5.95 -7.8)
    (stroke (width 0.05) (type solid)) (layer F.CrtYd))
  (fp_line (start 5.95 -7.8) (end -5.95 -7.8)
    (stroke (width 0.05) (type solid)) (layer F.CrtYd))
  (fp_line (start 0 7.66) (end 3.66 7.66)
    (stroke (width 0.12) (type solid)) (layer F.SilkS))
  (fp_line (start 3.66 7.66) (end 3.66 6.095)
    (stroke (width 0.12) (type solid)) (layer F.SilkS))
  (fp_line (start 0 7.66) (end -3.66 7.66)
    (stroke (width 0.12) (type solid)) (layer F.SilkS))
  (fp_line (start -3.66 7.66) (end -3.66 6.095)
    (stroke (width 0.12) (type solid)) (layer F.SilkS))
  (fp_line (start 0 -7.66) (end 3.66 -7.66)
    (stroke (width 0.12) (type solid)) (layer F.SilkS))
  (fp_line (start 3.66 -7.66) (end 3.66 -6.095)
    (stroke (width 0.12) (type solid)) (layer F.SilkS))
  (fp_line (start 0 -7.66) (end -3.66 -7.66)
    (stroke (width 0.12) (type solid)) (layer F.SilkS))
  (fp_line (start -3.66 -7.66) (end -3.66 -6.095)
    (stroke (width 0.12) (type solid)) (layer F.SilkS))
  (fp_line (start -2.55 -7.55) (end 3.55 -7.55)
    (stroke (width 0.1) (type solid)) (layer F.Fab))
  (fp_line (start 3.55 -7.55) (end 3.55 7.55)
    (stroke (width 0.1) (type solid)) (layer F.Fab))
  (fp_line (start 3.55 7.55) (end -3.55 7.55)
    (stroke (width 0.1) (type solid)) (layer F.Fab))
  (fp_line (start -3.55 7.55) (end -3.55 -6.55)
    (stroke (width 0.1) (type solid)) (layer F.Fab))
  (fp_line (start -3.55 -6.55) (end -2.55 -7.55)
    (stroke (width 0.1) (type solid)) (layer F.Fab))
  (pad 1 smd roundrect (at -4.7 -5.445) (size 2 0.78) (layers F.Cu F.Mask F.Paste) (roundrect_rratio 0.25))
  (pad 2 smd roundrect (at -4.7 -4.455) (size 2 0.78) (layers F.Cu F.Mask F.Paste) (roundrect_rratio 0.25))
  (pad 3 smd roundrect (at -4.7 -3.465) (size 2 0.78) (layers F.Cu F.Mask F.Paste) (roundrect_rratio 0.25))
  (pad 4 smd roundrect (at -4.7 -2.475) (size 2 0.78) (layers F.Cu F.Mask F.Paste) (roundrect_rratio 0.25))
  (pad 5 smd roundrect (at -4.7 -1.485) (size 2 0.78) (layers F.Cu F.Mask F.Paste) (roundrect_rratio 0.25))
  (pad 6 smd roundrect (at -4.7 -0.495) (size 2 0.78) (layers F.Cu F.Mask F.Paste) (roundrect_rratio 0.25))
  (pad 7 smd roundrect (at -4.7 0.495) (size 2 0.78) (layers F.Cu F.Mask F.Paste) (roundrect_rratio 0.25))
  (pad 8 smd roundrect (at -4.7 1.485) (size 2 0.78) (layers F.Cu F.Mask F.Paste) (roundrect_rratio 0.25))
  (pad 9 smd roundrect (at -4.7 2.475) (size 2 0.78) (layers F.Cu F.Mask F.Paste) (roundrect_rratio 0.25))
  (pad 10 smd roundrect (at -4.7 3.465) (size 2 0.78) (layers F.Cu F.Mask F.Paste) (roundrect_rratio 0.25))
  (pad 11 smd roundrect (at -4.7 4.455) (size 2 0.78) (layers F.Cu F.Mask F.Paste) (roundrect_rratio 0.25))
  (pad 12 smd roundrect (at -4.7 5.445) (size 2 0.78) (layers F.Cu F.Mask F.Paste) (roundrect_rratio 0.25))
  (pad 13 smd roundrect (at 4.7 5.445) (size 2 0.78) (layers F.Cu F.Mask F.Paste) (roundrect_rratio 0.25))
  (pad 14 smd roundrect (at 4.7 4.455) (size 2 0.78) (layers F.Cu F.Mask F.Paste) (roundrect_rratio 0.25))
  (pad 15 smd roundrect (at 4.7 3.465) (size 2 0.78) (layers F.Cu F.Mask F.Paste) (roundrect_rratio 0.25))
  (pad 16 smd roundrect (at 4.7 2.475) (size 2 0.78) (layers F.Cu F.Mask F.Paste) (roundrect_rratio 0.25))
  (pad 17 smd roundrect (at 4.7 1.485) (size 2 0.78) (layers F.Cu F.Mask F.Paste) (roundrect_rratio 0.25))
  (pad 18 smd roundrect (at 4.7 0.495) (size 2 0.78) (layers F.Cu F.Mask F.Paste) (roundrect_rratio 0.25))
  (pad 19 smd roundrect (at 4.7 -0.495) (size 2 0.78) (layers F.Cu F.Mask F.Paste) (roundrect_rratio 0.25))
  (pad 20 smd roundrect (at 4.7 -1.485) (size 2 0.78) (layers F.Cu F.Mask F.Paste) (roundrect_rratio 0.25))
  (pad 21 smd roundrect (at 4.7 -2.475) (size 2 0.78) (layers F.Cu F.Mask F.Paste) (roundrect_rratio 0.25))
  (pad 22 smd roundrect (at 4.7 -3.465) (size 2 0.78) (layers F.Cu F.Mask F.Paste) (roundrect_rratio 0.25))
  (pad 23 smd roundrect (at 4.7 -4.455) (size 2 0.78) (layers F.Cu F.Mask F.Paste) (roundrect_rratio 0.25))
  (pad 24 smd roundrect (at 4.7 -5.445) (size 2 0.78) (layers F.Cu F.Mask F.Paste) (roundrect_rratio 0.25))
  (fp_poly (pts (xy -4.625 -6.095) (xy -4.955 -6.557) (xy -4.295 -6.557) (xy -4.625 -6.095))
    (stroke (width 0.12) (type solid)) (fill solid) (layer F.SilkS))
  (fp_text user ${REFERENCE} (at 0 0) (layer F.Fab)
    (effects (font (size 1 1) (thickness 0.15)))
  )
  (model ${KICAD7_3DMODEL_DIR}/Transformer_SMD.3dshapes/Transformer_Ethernet_YDS_30F-51NL_SO-24_7.1x15.1mm.wrl
    (offset (xyz 0 0 0))
    (scale (xyz 1 1 1))
    (rotate (xyz 0 0 0))
  )
)
