(footprint Texas_DSBGA-5_0.8875x1.3875mm_Layout2x3_P0.5mm (version 20221018) (generator kicad-footprint-generator)
  (layer F.Cu)
  (descr "Texas Instruments, DSBGA, area grid, NSMD, YZP0005 pad definition, 0.8875x1.3875mm, 5 Ball, 2x3 Layout, 0.5mm Pitch, https://www.ti.com/lit/ds/symlink/sn74lvc1g17.pdf#page=42, https://www.ti.com/lit/ml/mxbg018l/mxbg018l.pdf")
  (tags "BGA 5 0.5 YZP")
  (attr smd)
  (solder_mask_margin 0.05)
  (fp_text reference REF** (at 0 -1.69375) (layer F.SilkS)
    (effects (font (size 1 1) (thickness 0.15)))
  )
  (fp_text value Texas_DSBGA-5_0.8875x1.3875mm_Layout2x3_P0.5mm (at 0 1.69375) (layer F.Fab)
    (effects (font (size 1 1) (thickness 0.15)))
  )
  (fp_line (start 0.44375 0.69375) (end -0.44375 0.69375)
    (stroke (width 0.1) (type solid)) (layer F.Fab))
  (fp_line (start -0.44375 0.69375) (end -0.44375 -0.471875)
    (stroke (width 0.1) (type solid)) (layer F.Fab))
  (fp_line (start -0.44375 -0.471875) (end -0.221875 -0.69375)
    (stroke (width 0.1) (type solid)) (layer F.Fab))
  (fp_line (start -0.221875 -0.69375) (end 0.44375 -0.69375)
    (stroke (width 0.1) (type solid)) (layer F.Fab))
  (fp_line (start 0.44375 -0.69375) (end 0.44375 0.69375)
    (stroke (width 0.1) (type solid)) (layer F.Fab))
  (fp_line (start -1.45 -1.7) (end -1.45 1.7)
    (stroke (width 0.05) (type solid)) (layer F.CrtYd))
  (fp_line (start -1.45 1.7) (end 1.45 1.7)
    (stroke (width 0.05) (type solid)) (layer F.CrtYd))
  (fp_line (start 1.45 1.7) (end 1.45 -1.7)
    (stroke (width 0.05) (type solid)) (layer F.CrtYd))
  (fp_line (start 1.45 -1.7) (end -1.45 -1.7)
    (stroke (width 0.05) (type solid)) (layer F.CrtYd))
  (fp_line (start -0.3675 -0.875) (end 0.625 -0.875)
    (stroke (width 0.12) (type solid)) (layer F.SilkS))
  (fp_line (start 0.625 -0.875) (end 0.625 0.875)
    (stroke (width 0.12) (type solid)) (layer F.SilkS))
  (fp_line (start 0.625 0.875) (end -0.625 0.875)
    (stroke (width 0.12) (type solid)) (layer F.SilkS))
  (fp_line (start -0.625 0.875) (end -0.625 -0.6175)
    (stroke (width 0.12) (type solid)) (layer F.SilkS))
  (pad A1 smd circle (at -0.25 -0.5) (size 0.23 0.23) (property pad_prop_bga) (layers F.Cu F.Mask F.Paste))
  (pad A2 smd circle (at 0.25 -0.5) (size 0.23 0.23) (property pad_prop_bga) (layers F.Cu F.Mask F.Paste))
  (pad B1 smd circle (at -0.25 0) (size 0.23 0.23) (property pad_prop_bga) (layers F.Cu F.Mask F.Paste))
  (pad C1 smd circle (at -0.25 0.5) (size 0.23 0.23) (property pad_prop_bga) (layers F.Cu F.Mask F.Paste))
  (pad C2 smd circle (at 0.25 0.5) (size 0.23 0.23) (property pad_prop_bga) (layers F.Cu F.Mask F.Paste))
  (fp_poly (pts (xy -0.625 -0.875) (xy -1.125 -0.875) (xy -0.625 -1.375) (xy -0.625 -0.875))
    (stroke (width 0.12) (type solid)) (fill solid) (layer F.SilkS))
  (fp_text user ${REFERENCE} (at 0 0 -90) (layer F.Fab)
    (effects (font (size 0.32 0.32) (thickness 0.048)))
  )
  (model ${KICAD7_3DMODEL_DIR}/Package_BGA.3dshapes/Texas_DSBGA-5_0.8875x1.3875mm_Layout2x3_P0.5mm.wrl
    (offset (xyz 0 0 0))
    (scale (xyz 1 1 1))
    (rotate (xyz 0 0 0))
  )
)
