(footprint DFN-6-1EP_2x1.6mm_P0.5mm_EP1.15x1.3mm (version 20221018) (generator kicad-footprint-generator)
  (layer F.Cu)
  (descr "DFN, 6 Pin (https://www.onsemi.com/pdf/datasheet/ncp349-d.pdf#page=12), generated with kicad-footprint-generator ipc_noLead_generator.py")
  (tags "DFN NoLead")
  (attr smd)
  (fp_text reference REF** (at 0 -1.75) (layer F.SilkS)
    (effects (font (size 1 1) (thickness 0.15)))
  )
  (fp_text value DFN-6-1EP_2x1.6mm_P0.5mm_EP1.15x1.3mm (at 0 1.75) (layer F.Fab)
    (effects (font (size 1 1) (thickness 0.15)))
  )
  (fp_line (start -1 -0.935) (end 1 -0.935)
    (stroke (width 0.12) (type solid)) (layer F.SilkS))
  (fp_line (start -1 0.935) (end 1 0.935)
    (stroke (width 0.12) (type solid)) (layer F.SilkS))
  (fp_line (start -0.6 -0.8) (end 1 -0.8)
    (stroke (width 0.1) (type solid)) (layer F.Fab))
  (fp_line (start 1 -0.8) (end 1 0.8)
    (stroke (width 0.1) (type solid)) (layer F.Fab))
  (fp_line (start 1 0.8) (end -1 0.8)
    (stroke (width 0.1) (type solid)) (layer F.Fab))
  (fp_line (start -1 0.8) (end -1 -0.4)
    (stroke (width 0.1) (type solid)) (layer F.Fab))
  (fp_line (start -1 -0.4) (end -0.6 -0.8)
    (stroke (width 0.1) (type solid)) (layer F.Fab))
  (fp_line (start -1.63 -1.05) (end -1.63 1.05)
    (stroke (width 0.05) (type solid)) (layer F.CrtYd))
  (fp_line (start -1.63 1.05) (end 1.63 1.05)
    (stroke (width 0.05) (type solid)) (layer F.CrtYd))
  (fp_line (start 1.63 1.05) (end 1.63 -1.05)
    (stroke (width 0.05) (type solid)) (layer F.CrtYd))
  (fp_line (start 1.63 -1.05) (end -1.63 -1.05)
    (stroke (width 0.05) (type solid)) (layer F.CrtYd))
  (pad 1 smd roundrect (at -1.075 -0.5) (size 0.6 0.35) (layers F.Cu F.Mask F.Paste) (roundrect_rratio 0.25))
  (pad 2 smd roundrect (at -1.075 0) (size 0.6 0.35) (layers F.Cu F.Mask F.Paste) (roundrect_rratio 0.25))
  (pad 3 smd roundrect (at -1.075 0.5) (size 0.6 0.35) (layers F.Cu F.Mask F.Paste) (roundrect_rratio 0.25))
  (pad 4 smd roundrect (at 1.075 0.5) (size 0.6 0.35) (layers F.Cu F.Mask F.Paste) (roundrect_rratio 0.25))
  (pad 5 smd roundrect (at 1.075 0) (size 0.6 0.35) (layers F.Cu F.Mask F.Paste) (roundrect_rratio 0.25))
  (pad 6 smd roundrect (at 1.075 -0.5) (size 0.6 0.35) (layers F.Cu F.Mask F.Paste) (roundrect_rratio 0.25))
  (pad 7 smd rect (at 0 0) (size 1.15 1.3) (property pad_prop_heatsink) (layers F.Cu F.Mask)
    (zone_connect 2))
  (pad "" smd roundrect (at 0 -0.325) (size 0.93 0.52) (layers F.Paste) (roundrect_rratio 0.25))
  (pad "" smd roundrect (at 0 0.325) (size 0.93 0.52) (layers F.Paste) (roundrect_rratio 0.25))
  (fp_poly (pts (xy -1.54 -0.84) (xy -1.9 -0.84) (xy -1.54 -1.2) (xy -1.54 -0.84))
    (stroke (width 0.12) (type solid)) (fill solid) (layer F.SilkS))
  (fp_text user ${REFERENCE} (at 0 0) (layer F.Fab)
    (effects (font (size 0.5 0.5) (thickness 0.08)))
  )
  (model ${KICAD7_3DMODEL_DIR}/Package_DFN_QFN.3dshapes/DFN-6-1EP_2x1.6mm_P0.5mm_EP1.15x1.3mm.wrl
    (offset (xyz 0 0 0))
    (scale (xyz 1 1 1))
    (rotate (xyz 0 0 0))
  )
)
