(footprint QFN-24-1EP_5x5mm_P0.65mm_EP3.6x3.6mm_ThermalVias (version 20221018) (generator kicad-footprint-generator)
  (layer F.Cu)
  (descr "QFN, 24 Pin (https://www.nxp.com/docs/en/package-information/98ASA00734D.pdf), generated with kicad-footprint-generator ipc_noLead_generator.py")
  (tags "QFN NoLead")
  (attr smd)
  (fp_text reference REF** (at 0 -3.8) (layer F.SilkS)
    (effects (font (size 1 1) (thickness 0.15)))
  )
  (fp_text value QFN-24-1EP_5x5mm_P0.65mm_EP3.6x3.6mm_ThermalVias (at 0 3.8) (layer F.Fab)
    (effects (font (size 1 1) (thickness 0.15)))
  )
  (fp_line (start -2.01 -2.61) (end -2.31 -2.61)
    (stroke (width 0.12) (type solid)) (layer F.SilkS))
  (fp_line (start -2.61 -2.01) (end -2.61 -2.37)
    (stroke (width 0.12) (type solid)) (layer F.SilkS))
  (fp_line (start 2.01 -2.61) (end 2.61 -2.61)
    (stroke (width 0.12) (type solid)) (layer F.SilkS))
  (fp_line (start 2.61 -2.61) (end 2.61 -2.01)
    (stroke (width 0.12) (type solid)) (layer F.SilkS))
  (fp_line (start -2.01 2.61) (end -2.61 2.61)
    (stroke (width 0.12) (type solid)) (layer F.SilkS))
  (fp_line (start -2.61 2.61) (end -2.61 2.01)
    (stroke (width 0.12) (type solid)) (layer F.SilkS))
  (fp_line (start 2.01 2.61) (end 2.61 2.61)
    (stroke (width 0.12) (type solid)) (layer F.SilkS))
  (fp_line (start 2.61 2.61) (end 2.61 2.01)
    (stroke (width 0.12) (type solid)) (layer F.SilkS))
  (fp_line (start -1.5 -2.5) (end 2.5 -2.5)
    (stroke (width 0.1) (type solid)) (layer F.Fab))
  (fp_line (start 2.5 -2.5) (end 2.5 2.5)
    (stroke (width 0.1) (type solid)) (layer F.Fab))
  (fp_line (start 2.5 2.5) (end -2.5 2.5)
    (stroke (width 0.1) (type solid)) (layer F.Fab))
  (fp_line (start -2.5 2.5) (end -2.5 -1.5)
    (stroke (width 0.1) (type solid)) (layer F.Fab))
  (fp_line (start -2.5 -1.5) (end -1.5 -2.5)
    (stroke (width 0.1) (type solid)) (layer F.Fab))
  (fp_line (start -3.1 -3.1) (end -3.1 3.1)
    (stroke (width 0.05) (type solid)) (layer F.CrtYd))
  (fp_line (start -3.1 3.1) (end 3.1 3.1)
    (stroke (width 0.05) (type solid)) (layer F.CrtYd))
  (fp_line (start 3.1 3.1) (end 3.1 -3.1)
    (stroke (width 0.05) (type solid)) (layer F.CrtYd))
  (fp_line (start 3.1 -3.1) (end -3.1 -3.1)
    (stroke (width 0.05) (type solid)) (layer F.CrtYd))
  (pad 1 smd roundrect (at -2.4375 -1.625) (size 0.825 0.25) (layers F.Cu F.Mask F.Paste) (roundrect_rratio 0.25))
  (pad 2 smd roundrect (at -2.4375 -0.975) (size 0.825 0.25) (layers F.Cu F.Mask F.Paste) (roundrect_rratio 0.25))
  (pad 3 smd roundrect (at -2.4375 -0.325) (size 0.825 0.25) (layers F.Cu F.Mask F.Paste) (roundrect_rratio 0.25))
  (pad 4 smd roundrect (at -2.4375 0.325) (size 0.825 0.25) (layers F.Cu F.Mask F.Paste) (roundrect_rratio 0.25))
  (pad 5 smd roundrect (at -2.4375 0.975) (size 0.825 0.25) (layers F.Cu F.Mask F.Paste) (roundrect_rratio 0.25))
  (pad 6 smd roundrect (at -2.4375 1.625) (size 0.825 0.25) (layers F.Cu F.Mask F.Paste) (roundrect_rratio 0.25))
  (pad 7 smd roundrect (at -1.625 2.4375) (size 0.25 0.825) (layers F.Cu F.Mask F.Paste) (roundrect_rratio 0.25))
  (pad 8 smd roundrect (at -0.975 2.4375) (size 0.25 0.825) (layers F.Cu F.Mask F.Paste) (roundrect_rratio 0.25))
  (pad 9 smd roundrect (at -0.325 2.4375) (size 0.25 0.825) (layers F.Cu F.Mask F.Paste) (roundrect_rratio 0.25))
  (pad 10 smd roundrect (at 0.325 2.4375) (size 0.25 0.825) (layers F.Cu F.Mask F.Paste) (roundrect_rratio 0.25))
  (pad 11 smd roundrect (at 0.975 2.4375) (size 0.25 0.825) (layers F.Cu F.Mask F.Paste) (roundrect_rratio 0.25))
  (pad 12 smd roundrect (at 1.625 2.4375) (size 0.25 0.825) (layers F.Cu F.Mask F.Paste) (roundrect_rratio 0.25))
  (pad 13 smd roundrect (at 2.4375 1.625) (size 0.825 0.25) (layers F.Cu F.Mask F.Paste) (roundrect_rratio 0.25))
  (pad 14 smd roundrect (at 2.4375 0.975) (size 0.825 0.25) (layers F.Cu F.Mask F.Paste) (roundrect_rratio 0.25))
  (pad 15 smd roundrect (at 2.4375 0.325) (size 0.825 0.25) (layers F.Cu F.Mask F.Paste) (roundrect_rratio 0.25))
  (pad 16 smd roundrect (at 2.4375 -0.325) (size 0.825 0.25) (layers F.Cu F.Mask F.Paste) (roundrect_rratio 0.25))
  (pad 17 smd roundrect (at 2.4375 -0.975) (size 0.825 0.25) (layers F.Cu F.Mask F.Paste) (roundrect_rratio 0.25))
  (pad 18 smd roundrect (at 2.4375 -1.625) (size 0.825 0.25) (layers F.Cu F.Mask F.Paste) (roundrect_rratio 0.25))
  (pad 19 smd roundrect (at 1.625 -2.4375) (size 0.25 0.825) (layers F.Cu F.Mask F.Paste) (roundrect_rratio 0.25))
  (pad 20 smd roundrect (at 0.975 -2.4375) (size 0.25 0.825) (layers F.Cu F.Mask F.Paste) (roundrect_rratio 0.25))
  (pad 21 smd roundrect (at 0.325 -2.4375) (size 0.25 0.825) (layers F.Cu F.Mask F.Paste) (roundrect_rratio 0.25))
  (pad 22 smd roundrect (at -0.325 -2.4375) (size 0.25 0.825) (layers F.Cu F.Mask F.Paste) (roundrect_rratio 0.25))
  (pad 23 smd roundrect (at -0.975 -2.4375) (size 0.25 0.825) (layers F.Cu F.Mask F.Paste) (roundrect_rratio 0.25))
  (pad 24 smd roundrect (at -1.625 -2.4375) (size 0.25 0.825) (layers F.Cu F.Mask F.Paste) (roundrect_rratio 0.25))
  (pad 25 smd rect (at 0 0) (size 3.6 3.6) (property pad_prop_heatsink) (layers F.Cu F.Mask)
    (zone_connect 2))
  (pad 25 thru_hole circle (at -1.275 -1.275) (size 0.5 0.5) (drill 0.2) (property pad_prop_heatsink) (layers *.Cu))
  (pad 25 thru_hole circle (at -0.425 -1.275) (size 0.5 0.5) (drill 0.2) (property pad_prop_heatsink) (layers *.Cu))
  (pad 25 thru_hole circle (at 0.425 -1.275) (size 0.5 0.5) (drill 0.2) (property pad_prop_heatsink) (layers *.Cu))
  (pad 25 thru_hole circle (at 1.275 -1.275) (size 0.5 0.5) (drill 0.2) (property pad_prop_heatsink) (layers *.Cu))
  (pad 25 thru_hole circle (at -1.275 -0.425) (size 0.5 0.5) (drill 0.2) (property pad_prop_heatsink) (layers *.Cu))
  (pad 25 thru_hole circle (at -0.425 -0.425) (size 0.5 0.5) (drill 0.2) (property pad_prop_heatsink) (layers *.Cu))
  (pad 25 thru_hole circle (at 0.425 -0.425) (size 0.5 0.5) (drill 0.2) (property pad_prop_heatsink) (layers *.Cu))
  (pad 25 thru_hole circle (at 1.275 -0.425) (size 0.5 0.5) (drill 0.2) (property pad_prop_heatsink) (layers *.Cu))
  (pad 25 thru_hole circle (at -1.275 0.425) (size 0.5 0.5) (drill 0.2) (property pad_prop_heatsink) (layers *.Cu))
  (pad 25 thru_hole circle (at -0.425 0.425) (size 0.5 0.5) (drill 0.2) (property pad_prop_heatsink) (layers *.Cu))
  (pad 25 thru_hole circle (at 0.425 0.425) (size 0.5 0.5) (drill 0.2) (property pad_prop_heatsink) (layers *.Cu))
  (pad 25 thru_hole circle (at 1.275 0.425) (size 0.5 0.5) (drill 0.2) (property pad_prop_heatsink) (layers *.Cu))
  (pad 25 thru_hole circle (at -1.275 1.275) (size 0.5 0.5) (drill 0.2) (property pad_prop_heatsink) (layers *.Cu))
  (pad 25 thru_hole circle (at -0.425 1.275) (size 0.5 0.5) (drill 0.2) (property pad_prop_heatsink) (layers *.Cu))
  (pad 25 thru_hole circle (at 0.425 1.275) (size 0.5 0.5) (drill 0.2) (property pad_prop_heatsink) (layers *.Cu))
  (pad 25 thru_hole circle (at 1.275 1.275) (size 0.5 0.5) (drill 0.2) (property pad_prop_heatsink) (layers *.Cu))
  (pad 25 smd rect (at 0 0) (size 3.05 3.05) (property pad_prop_heatsink) (layers B.Cu)
    (zone_connect 2))
  (pad "" smd custom (at -0.85 -0.85) (size 0.601758 0.601758) (layers F.Paste)
    (options (clearance outline) (anchor circle))
    (primitives
      (gr_poly (pts
         (xy -0.259112 -0.189911) (xy -0.189911 -0.259112) (xy 0.189911 -0.259112) (xy 0.259112 -0.189911)
         (xy 0.259112 0.189911) (xy 0.189911 0.259112) (xy -0.189911 0.259112) (xy -0.259112 0.189911)) (width 0.167068))
    ))
  (pad "" smd custom (at -0.85 0) (size 0.601758 0.601758) (layers F.Paste)
    (options (clearance outline) (anchor circle))
    (primitives
      (gr_poly (pts
         (xy -0.259112 -0.189911) (xy -0.189911 -0.259112) (xy 0.189911 -0.259112) (xy 0.259112 -0.189911)
         (xy 0.259112 0.189911) (xy 0.189911 0.259112) (xy -0.189911 0.259112) (xy -0.259112 0.189911)) (width 0.167068))
    ))
  (pad "" smd custom (at -0.85 0.85) (size 0.601758 0.601758) (layers F.Paste)
    (options (clearance outline) (anchor circle))
    (primitives
      (gr_poly (pts
         (xy -0.259112 -0.189911) (xy -0.189911 -0.259112) (xy 0.189911 -0.259112) (xy 0.259112 -0.189911)
         (xy 0.259112 0.189911) (xy 0.189911 0.259112) (xy -0.189911 0.259112) (xy -0.259112 0.189911)) (width 0.167068))
    ))
  (pad "" smd custom (at 0 -0.85) (size 0.601758 0.601758) (layers F.Paste)
    (options (clearance outline) (anchor circle))
    (primitives
      (gr_poly (pts
         (xy -0.259112 -0.189911) (xy -0.189911 -0.259112) (xy 0.189911 -0.259112) (xy 0.259112 -0.189911)
         (xy 0.259112 0.189911) (xy 0.189911 0.259112) (xy -0.189911 0.259112) (xy -0.259112 0.189911)) (width 0.167068))
    ))
  (pad "" smd custom (at 0 0) (size 0.601758 0.601758) (layers F.Paste)
    (options (clearance outline) (anchor circle))
    (primitives
      (gr_poly (pts
         (xy -0.259112 -0.189911) (xy -0.189911 -0.259112) (xy 0.189911 -0.259112) (xy 0.259112 -0.189911)
         (xy 0.259112 0.189911) (xy 0.189911 0.259112) (xy -0.189911 0.259112) (xy -0.259112 0.189911)) (width 0.167068))
    ))
  (pad "" smd custom (at 0 0.85) (size 0.601758 0.601758) (layers F.Paste)
    (options (clearance outline) (anchor circle))
    (primitives
      (gr_poly (pts
         (xy -0.259112 -0.189911) (xy -0.189911 -0.259112) (xy 0.189911 -0.259112) (xy 0.259112 -0.189911)
         (xy 0.259112 0.189911) (xy 0.189911 0.259112) (xy -0.189911 0.259112) (xy -0.259112 0.189911)) (width 0.167068))
    ))
  (pad "" smd custom (at 0.85 -0.85) (size 0.601758 0.601758) (layers F.Paste)
    (options (clearance outline) (anchor circle))
    (primitives
      (gr_poly (pts
         (xy -0.259112 -0.189911) (xy -0.189911 -0.259112) (xy 0.189911 -0.259112) (xy 0.259112 -0.189911)
         (xy 0.259112 0.189911) (xy 0.189911 0.259112) (xy -0.189911 0.259112) (xy -0.259112 0.189911)) (width 0.167068))
    ))
  (pad "" smd custom (at 0.85 0) (size 0.601758 0.601758) (layers F.Paste)
    (options (clearance outline) (anchor circle))
    (primitives
      (gr_poly (pts
         (xy -0.259112 -0.189911) (xy -0.189911 -0.259112) (xy 0.189911 -0.259112) (xy 0.259112 -0.189911)
         (xy 0.259112 0.189911) (xy 0.189911 0.259112) (xy -0.189911 0.259112) (xy -0.259112 0.189911)) (width 0.167068))
    ))
  (pad "" smd custom (at 0.85 0.85) (size 0.601758 0.601758) (layers F.Paste)
    (options (clearance outline) (anchor circle))
    (primitives
      (gr_poly (pts
         (xy -0.259112 -0.189911) (xy -0.189911 -0.259112) (xy 0.189911 -0.259112) (xy 0.259112 -0.189911)
         (xy 0.259112 0.189911) (xy 0.189911 0.259112) (xy -0.189911 0.259112) (xy -0.259112 0.189911)) (width 0.167068))
    ))
  (pad "" smd custom (at -1.5375 -0.85) (size 0.317469 0.317469) (layers F.Paste)
    (options (clearance outline) (anchor circle))
    (primitives
      (gr_poly (pts
         (xy -0.105835 -0.236847) (xy 0.018188 -0.236847) (xy 0.105835 -0.149199) (xy 0.105835 0.149199)
         (xy 0.018188 0.236847) (xy -0.105835 0.236847)) (width 0.211599))
    ))
  (pad "" smd custom (at -1.5375 0) (size 0.317469 0.317469) (layers F.Paste)
    (options (clearance outline) (anchor circle))
    (primitives
      (gr_poly (pts
         (xy -0.105835 -0.236847) (xy 0.018188 -0.236847) (xy 0.105835 -0.149199) (xy 0.105835 0.149199)
         (xy 0.018188 0.236847) (xy -0.105835 0.236847)) (width 0.211599))
    ))
  (pad "" smd custom (at -1.5375 0.85) (size 0.317469 0.317469) (layers F.Paste)
    (options (clearance outline) (anchor circle))
    (primitives
      (gr_poly (pts
         (xy -0.105835 -0.236847) (xy 0.018188 -0.236847) (xy 0.105835 -0.149199) (xy 0.105835 0.149199)
         (xy 0.018188 0.236847) (xy -0.105835 0.236847)) (width 0.211599))
    ))
  (pad "" smd custom (at 1.5375 -0.85) (size 0.317469 0.317469) (layers F.Paste)
    (options (clearance outline) (anchor circle))
    (primitives
      (gr_poly (pts
         (xy -0.105835 -0.149199) (xy -0.018188 -0.236847) (xy 0.105835 -0.236847) (xy 0.105835 0.236847)
         (xy -0.018188 0.236847) (xy -0.105835 0.149199)) (width 0.211599))
    ))
  (pad "" smd custom (at 1.5375 0) (size 0.317469 0.317469) (layers F.Paste)
    (options (clearance outline) (anchor circle))
    (primitives
      (gr_poly (pts
         (xy -0.105835 -0.149199) (xy -0.018188 -0.236847) (xy 0.105835 -0.236847) (xy 0.105835 0.236847)
         (xy -0.018188 0.236847) (xy -0.105835 0.149199)) (width 0.211599))
    ))
  (pad "" smd custom (at 1.5375 0.85) (size 0.317469 0.317469) (layers F.Paste)
    (options (clearance outline) (anchor circle))
    (primitives
      (gr_poly (pts
         (xy -0.105835 -0.149199) (xy -0.018188 -0.236847) (xy 0.105835 -0.236847) (xy 0.105835 0.236847)
         (xy -0.018188 0.236847) (xy -0.105835 0.149199)) (width 0.211599))
    ))
  (pad "" smd custom (at -0.85 -1.5375) (size 0.317469 0.317469) (layers F.Paste)
    (options (clearance outline) (anchor circle))
    (primitives
      (gr_poly (pts
         (xy -0.236847 -0.105835) (xy 0.236847 -0.105835) (xy 0.236847 0.018188) (xy 0.149199 0.105835)
         (xy -0.149199 0.105835) (xy -0.236847 0.018188)) (width 0.211599))
    ))
  (pad "" smd custom (at 0 -1.5375) (size 0.317469 0.317469) (layers F.Paste)
    (options (clearance outline) (anchor circle))
    (primitives
      (gr_poly (pts
         (xy -0.236847 -0.105835) (xy 0.236847 -0.105835) (xy 0.236847 0.018188) (xy 0.149199 0.105835)
         (xy -0.149199 0.105835) (xy -0.236847 0.018188)) (width 0.211599))
    ))
  (pad "" smd custom (at 0.85 -1.5375) (size 0.317469 0.317469) (layers F.Paste)
    (options (clearance outline) (anchor circle))
    (primitives
      (gr_poly (pts
         (xy -0.236847 -0.105835) (xy 0.236847 -0.105835) (xy 0.236847 0.018188) (xy 0.149199 0.105835)
         (xy -0.149199 0.105835) (xy -0.236847 0.018188)) (width 0.211599))
    ))
  (pad "" smd custom (at -0.85 1.5375) (size 0.317469 0.317469) (layers F.Paste)
    (options (clearance outline) (anchor circle))
    (primitives
      (gr_poly (pts
         (xy -0.236847 -0.018188) (xy -0.149199 -0.105835) (xy 0.149199 -0.105835) (xy 0.236847 -0.018188)
         (xy 0.236847 0.105835) (xy -0.236847 0.105835)) (width 0.211599))
    ))
  (pad "" smd custom (at 0 1.5375) (size 0.317469 0.317469) (layers F.Paste)
    (options (clearance outline) (anchor circle))
    (primitives
      (gr_poly (pts
         (xy -0.236847 -0.018188) (xy -0.149199 -0.105835) (xy 0.149199 -0.105835) (xy 0.236847 -0.018188)
         (xy 0.236847 0.105835) (xy -0.236847 0.105835)) (width 0.211599))
    ))
  (pad "" smd custom (at 0.85 1.5375) (size 0.317469 0.317469) (layers F.Paste)
    (options (clearance outline) (anchor circle))
    (primitives
      (gr_poly (pts
         (xy -0.236847 -0.018188) (xy -0.149199 -0.105835) (xy 0.149199 -0.105835) (xy 0.236847 -0.018188)
         (xy 0.236847 0.105835) (xy -0.236847 0.105835)) (width 0.211599))
    ))
  (pad "" smd custom (at -1.5375 -1.5375) (size 0.295204 0.295204) (layers F.Paste)
    (options (clearance outline) (anchor circle))
    (primitives
      (gr_poly (pts
         (xy -0.105817 -0.105817) (xy 0.105817 -0.105817) (xy 0.105817 -0.013308) (xy -0.013308 0.105817)
         (xy -0.105817 0.105817)) (width 0.211634))
    ))
  (pad "" smd custom (at -1.5375 1.5375) (size 0.295204 0.295204) (layers F.Paste)
    (options (clearance outline) (anchor circle))
    (primitives
      (gr_poly (pts
         (xy -0.105817 -0.105817) (xy -0.013308 -0.105817) (xy 0.105817 0.013308) (xy 0.105817 0.105817)
         (xy -0.105817 0.105817)) (width 0.211634))
    ))
  (pad "" smd custom (at 1.5375 -1.5375) (size 0.295204 0.295204) (layers F.Paste)
    (options (clearance outline) (anchor circle))
    (primitives
      (gr_poly (pts
         (xy -0.105817 -0.105817) (xy 0.105817 -0.105817) (xy 0.105817 0.105817) (xy 0.013308 0.105817)
         (xy -0.105817 -0.013308)) (width 0.211634))
    ))
  (pad "" smd custom (at 1.5375 1.5375) (size 0.295204 0.295204) (layers F.Paste)
    (options (clearance outline) (anchor circle))
    (primitives
      (gr_poly (pts
         (xy -0.105817 0.013308) (xy 0.013308 -0.105817) (xy 0.105817 -0.105817) (xy 0.105817 0.105817)
         (xy -0.105817 0.105817)) (width 0.211634))
    ))
  (fp_poly (pts (xy -2.61 -2.61) (xy -2.79 -2.862) (xy -2.43 -2.862) (xy -2.61 -2.61))
    (stroke (width 0.12) (type solid)) (fill solid) (layer F.SilkS))
  (fp_text user ${REFERENCE} (at 0 0) (layer F.Fab)
    (effects (font (size 1 1) (thickness 0.15)))
  )
  (model ${KICAD7_3DMODEL_DIR}/Package_DFN_QFN.3dshapes/QFN-24-1EP_5x5mm_P0.65mm_EP3.6x3.6mm.wrl
    (offset (xyz 0 0 0))
    (scale (xyz 1 1 1))
    (rotate (xyz 0 0 0))
  )
)
