(footprint Texas_RHA_VQFN-40-1EP_6x6mm_P0.5mm_EP4.6x4.6mm_ThermalVias (version 20221018) (generator kicad-footprint-generator)
  (layer F.Cu)
  (descr "Texas RHA VQFN, 40 Pin (http://www.ti.com/lit/ds/symlink/dac7750.pdf#page=49), generated with kicad-footprint-generator ipc_noLead_generator.py")
  (tags "Texas VQFN NoLead")
  (attr smd)
  (fp_text reference REF** (at 0 -4.33) (layer F.SilkS)
    (effects (font (size 1 1) (thickness 0.15)))
  )
  (fp_text value Texas_RHA_VQFN-40-1EP_6x6mm_P0.5mm_EP4.6x4.6mm_ThermalVias (at 0 4.33) (layer F.Fab)
    (effects (font (size 1 1) (thickness 0.15)))
  )
  (fp_line (start -2.635 -3.11) (end -2.81 -3.11)
    (stroke (width 0.12) (type solid)) (layer F.SilkS))
  (fp_line (start -3.11 -2.635) (end -3.11 -2.87)
    (stroke (width 0.12) (type solid)) (layer F.SilkS))
  (fp_line (start 2.635 -3.11) (end 3.11 -3.11)
    (stroke (width 0.12) (type solid)) (layer F.SilkS))
  (fp_line (start 3.11 -3.11) (end 3.11 -2.635)
    (stroke (width 0.12) (type solid)) (layer F.SilkS))
  (fp_line (start -2.635 3.11) (end -3.11 3.11)
    (stroke (width 0.12) (type solid)) (layer F.SilkS))
  (fp_line (start -3.11 3.11) (end -3.11 2.635)
    (stroke (width 0.12) (type solid)) (layer F.SilkS))
  (fp_line (start 2.635 3.11) (end 3.11 3.11)
    (stroke (width 0.12) (type solid)) (layer F.SilkS))
  (fp_line (start 3.11 3.11) (end 3.11 2.635)
    (stroke (width 0.12) (type solid)) (layer F.SilkS))
  (fp_line (start -2 -3) (end 3 -3)
    (stroke (width 0.1) (type solid)) (layer F.Fab))
  (fp_line (start 3 -3) (end 3 3)
    (stroke (width 0.1) (type solid)) (layer F.Fab))
  (fp_line (start 3 3) (end -3 3)
    (stroke (width 0.1) (type solid)) (layer F.Fab))
  (fp_line (start -3 3) (end -3 -2)
    (stroke (width 0.1) (type solid)) (layer F.Fab))
  (fp_line (start -3 -2) (end -2 -3)
    (stroke (width 0.1) (type solid)) (layer F.Fab))
  (fp_line (start -3.63 -3.63) (end -3.63 3.63)
    (stroke (width 0.05) (type solid)) (layer F.CrtYd))
  (fp_line (start -3.63 3.63) (end 3.63 3.63)
    (stroke (width 0.05) (type solid)) (layer F.CrtYd))
  (fp_line (start 3.63 3.63) (end 3.63 -3.63)
    (stroke (width 0.05) (type solid)) (layer F.CrtYd))
  (fp_line (start 3.63 -3.63) (end -3.63 -3.63)
    (stroke (width 0.05) (type solid)) (layer F.CrtYd))
  (pad 1 smd roundrect (at -2.9375 -2.25) (size 0.875 0.25) (layers F.Cu F.Mask F.Paste) (roundrect_rratio 0.25))
  (pad 2 smd roundrect (at -2.9375 -1.75) (size 0.875 0.25) (layers F.Cu F.Mask F.Paste) (roundrect_rratio 0.25))
  (pad 3 smd roundrect (at -2.9375 -1.25) (size 0.875 0.25) (layers F.Cu F.Mask F.Paste) (roundrect_rratio 0.25))
  (pad 4 smd roundrect (at -2.9375 -0.75) (size 0.875 0.25) (layers F.Cu F.Mask F.Paste) (roundrect_rratio 0.25))
  (pad 5 smd roundrect (at -2.9375 -0.25) (size 0.875 0.25) (layers F.Cu F.Mask F.Paste) (roundrect_rratio 0.25))
  (pad 6 smd roundrect (at -2.9375 0.25) (size 0.875 0.25) (layers F.Cu F.Mask F.Paste) (roundrect_rratio 0.25))
  (pad 7 smd roundrect (at -2.9375 0.75) (size 0.875 0.25) (layers F.Cu F.Mask F.Paste) (roundrect_rratio 0.25))
  (pad 8 smd roundrect (at -2.9375 1.25) (size 0.875 0.25) (layers F.Cu F.Mask F.Paste) (roundrect_rratio 0.25))
  (pad 9 smd roundrect (at -2.9375 1.75) (size 0.875 0.25) (layers F.Cu F.Mask F.Paste) (roundrect_rratio 0.25))
  (pad 10 smd roundrect (at -2.9375 2.25) (size 0.875 0.25) (layers F.Cu F.Mask F.Paste) (roundrect_rratio 0.25))
  (pad 11 smd roundrect (at -2.25 2.9375) (size 0.25 0.875) (layers F.Cu F.Mask F.Paste) (roundrect_rratio 0.25))
  (pad 12 smd roundrect (at -1.75 2.9375) (size 0.25 0.875) (layers F.Cu F.Mask F.Paste) (roundrect_rratio 0.25))
  (pad 13 smd roundrect (at -1.25 2.9375) (size 0.25 0.875) (layers F.Cu F.Mask F.Paste) (roundrect_rratio 0.25))
  (pad 14 smd roundrect (at -0.75 2.9375) (size 0.25 0.875) (layers F.Cu F.Mask F.Paste) (roundrect_rratio 0.25))
  (pad 15 smd roundrect (at -0.25 2.9375) (size 0.25 0.875) (layers F.Cu F.Mask F.Paste) (roundrect_rratio 0.25))
  (pad 16 smd roundrect (at 0.25 2.9375) (size 0.25 0.875) (layers F.Cu F.Mask F.Paste) (roundrect_rratio 0.25))
  (pad 17 smd roundrect (at 0.75 2.9375) (size 0.25 0.875) (layers F.Cu F.Mask F.Paste) (roundrect_rratio 0.25))
  (pad 18 smd roundrect (at 1.25 2.9375) (size 0.25 0.875) (layers F.Cu F.Mask F.Paste) (roundrect_rratio 0.25))
  (pad 19 smd roundrect (at 1.75 2.9375) (size 0.25 0.875) (layers F.Cu F.Mask F.Paste) (roundrect_rratio 0.25))
  (pad 20 smd roundrect (at 2.25 2.9375) (size 0.25 0.875) (layers F.Cu F.Mask F.Paste) (roundrect_rratio 0.25))
  (pad 21 smd roundrect (at 2.9375 2.25) (size 0.875 0.25) (layers F.Cu F.Mask F.Paste) (roundrect_rratio 0.25))
  (pad 22 smd roundrect (at 2.9375 1.75) (size 0.875 0.25) (layers F.Cu F.Mask F.Paste) (roundrect_rratio 0.25))
  (pad 23 smd roundrect (at 2.9375 1.25) (size 0.875 0.25) (layers F.Cu F.Mask F.Paste) (roundrect_rratio 0.25))
  (pad 24 smd roundrect (at 2.9375 0.75) (size 0.875 0.25) (layers F.Cu F.Mask F.Paste) (roundrect_rratio 0.25))
  (pad 25 smd roundrect (at 2.9375 0.25) (size 0.875 0.25) (layers F.Cu F.Mask F.Paste) (roundrect_rratio 0.25))
  (pad 26 smd roundrect (at 2.9375 -0.25) (size 0.875 0.25) (layers F.Cu F.Mask F.Paste) (roundrect_rratio 0.25))
  (pad 27 smd roundrect (at 2.9375 -0.75) (size 0.875 0.25) (layers F.Cu F.Mask F.Paste) (roundrect_rratio 0.25))
  (pad 28 smd roundrect (at 2.9375 -1.25) (size 0.875 0.25) (layers F.Cu F.Mask F.Paste) (roundrect_rratio 0.25))
  (pad 29 smd roundrect (at 2.9375 -1.75) (size 0.875 0.25) (layers F.Cu F.Mask F.Paste) (roundrect_rratio 0.25))
  (pad 30 smd roundrect (at 2.9375 -2.25) (size 0.875 0.25) (layers F.Cu F.Mask F.Paste) (roundrect_rratio 0.25))
  (pad 31 smd roundrect (at 2.25 -2.9375) (size 0.25 0.875) (layers F.Cu F.Mask F.Paste) (roundrect_rratio 0.25))
  (pad 32 smd roundrect (at 1.75 -2.9375) (size 0.25 0.875) (layers F.Cu F.Mask F.Paste) (roundrect_rratio 0.25))
  (pad 33 smd roundrect (at 1.25 -2.9375) (size 0.25 0.875) (layers F.Cu F.Mask F.Paste) (roundrect_rratio 0.25))
  (pad 34 smd roundrect (at 0.75 -2.9375) (size 0.25 0.875) (layers F.Cu F.Mask F.Paste) (roundrect_rratio 0.25))
  (pad 35 smd roundrect (at 0.25 -2.9375) (size 0.25 0.875) (layers F.Cu F.Mask F.Paste) (roundrect_rratio 0.25))
  (pad 36 smd roundrect (at -0.25 -2.9375) (size 0.25 0.875) (layers F.Cu F.Mask F.Paste) (roundrect_rratio 0.25))
  (pad 37 smd roundrect (at -0.75 -2.9375) (size 0.25 0.875) (layers F.Cu F.Mask F.Paste) (roundrect_rratio 0.25))
  (pad 38 smd roundrect (at -1.25 -2.9375) (size 0.25 0.875) (layers F.Cu F.Mask F.Paste) (roundrect_rratio 0.25))
  (pad 39 smd roundrect (at -1.75 -2.9375) (size 0.25 0.875) (layers F.Cu F.Mask F.Paste) (roundrect_rratio 0.25))
  (pad 40 smd roundrect (at -2.25 -2.9375) (size 0.25 0.875) (layers F.Cu F.Mask F.Paste) (roundrect_rratio 0.25))
  (pad 41 smd rect (at 0 0) (size 4.6 4.6) (property pad_prop_heatsink) (layers F.Cu F.Mask)
    (zone_connect 2))
  (pad 41 thru_hole circle (at -1.725 -1.725) (size 0.5 0.5) (drill 0.2) (property pad_prop_heatsink) (layers *.Cu))
  (pad 41 thru_hole circle (at -0.575 -1.725) (size 0.5 0.5) (drill 0.2) (property pad_prop_heatsink) (layers *.Cu))
  (pad 41 thru_hole circle (at 0.575 -1.725) (size 0.5 0.5) (drill 0.2) (property pad_prop_heatsink) (layers *.Cu))
  (pad 41 thru_hole circle (at 1.725 -1.725) (size 0.5 0.5) (drill 0.2) (property pad_prop_heatsink) (layers *.Cu))
  (pad 41 thru_hole circle (at -1.725 -0.575) (size 0.5 0.5) (drill 0.2) (property pad_prop_heatsink) (layers *.Cu))
  (pad 41 thru_hole circle (at -0.575 -0.575) (size 0.5 0.5) (drill 0.2) (property pad_prop_heatsink) (layers *.Cu))
  (pad 41 thru_hole circle (at 0.575 -0.575) (size 0.5 0.5) (drill 0.2) (property pad_prop_heatsink) (layers *.Cu))
  (pad 41 thru_hole circle (at 1.725 -0.575) (size 0.5 0.5) (drill 0.2) (property pad_prop_heatsink) (layers *.Cu))
  (pad 41 thru_hole circle (at -1.725 0.575) (size 0.5 0.5) (drill 0.2) (property pad_prop_heatsink) (layers *.Cu))
  (pad 41 thru_hole circle (at -0.575 0.575) (size 0.5 0.5) (drill 0.2) (property pad_prop_heatsink) (layers *.Cu))
  (pad 41 thru_hole circle (at 0.575 0.575) (size 0.5 0.5) (drill 0.2) (property pad_prop_heatsink) (layers *.Cu))
  (pad 41 thru_hole circle (at 1.725 0.575) (size 0.5 0.5) (drill 0.2) (property pad_prop_heatsink) (layers *.Cu))
  (pad 41 thru_hole circle (at -1.725 1.725) (size 0.5 0.5) (drill 0.2) (property pad_prop_heatsink) (layers *.Cu))
  (pad 41 thru_hole circle (at -0.575 1.725) (size 0.5 0.5) (drill 0.2) (property pad_prop_heatsink) (layers *.Cu))
  (pad 41 thru_hole circle (at 0.575 1.725) (size 0.5 0.5) (drill 0.2) (property pad_prop_heatsink) (layers *.Cu))
  (pad 41 thru_hole circle (at 1.725 1.725) (size 0.5 0.5) (drill 0.2) (property pad_prop_heatsink) (layers *.Cu))
  (pad 41 smd rect (at 0 0) (size 3.95 3.95) (property pad_prop_heatsink) (layers B.Cu)
    (zone_connect 2))
  (pad "" smd roundrect (at -1.15 -1.15) (size 0.92716 0.92716) (layers F.Paste) (roundrect_rratio 0.25))
  (pad "" smd roundrect (at -1.15 0) (size 0.92716 0.92716) (layers F.Paste) (roundrect_rratio 0.25))
  (pad "" smd roundrect (at -1.15 1.15) (size 0.92716 0.92716) (layers F.Paste) (roundrect_rratio 0.25))
  (pad "" smd roundrect (at 0 -1.15) (size 0.92716 0.92716) (layers F.Paste) (roundrect_rratio 0.25))
  (pad "" smd roundrect (at 0 0) (size 0.92716 0.92716) (layers F.Paste) (roundrect_rratio 0.25))
  (pad "" smd roundrect (at 0 1.15) (size 0.92716 0.92716) (layers F.Paste) (roundrect_rratio 0.25))
  (pad "" smd roundrect (at 1.15 -1.15) (size 0.92716 0.92716) (layers F.Paste) (roundrect_rratio 0.25))
  (pad "" smd roundrect (at 1.15 0) (size 0.92716 0.92716) (layers F.Paste) (roundrect_rratio 0.25))
  (pad "" smd roundrect (at 1.15 1.15) (size 0.92716 0.92716) (layers F.Paste) (roundrect_rratio 0.25))
  (pad "" smd custom (at -2.0125 -1.15) (size 0.381759 0.381759) (layers F.Paste)
    (options (clearance outline) (anchor circle))
    (primitives
      (gr_poly (pts
         (xy -0.149969 -0.381759) (xy 0.082186 -0.381759) (xy 0.149969 -0.313976) (xy 0.149969 0.313976)
         (xy 0.082186 0.381759) (xy -0.149969 0.381759)) (width 0.163642))
    ))
  (pad "" smd custom (at -2.0125 0) (size 0.381759 0.381759) (layers F.Paste)
    (options (clearance outline) (anchor circle))
    (primitives
      (gr_poly (pts
         (xy -0.149969 -0.381759) (xy 0.082186 -0.381759) (xy 0.149969 -0.313976) (xy 0.149969 0.313976)
         (xy 0.082186 0.381759) (xy -0.149969 0.381759)) (width 0.163642))
    ))
  (pad "" smd custom (at -2.0125 1.15) (size 0.381759 0.381759) (layers F.Paste)
    (options (clearance outline) (anchor circle))
    (primitives
      (gr_poly (pts
         (xy -0.149969 -0.381759) (xy 0.082186 -0.381759) (xy 0.149969 -0.313976) (xy 0.149969 0.313976)
         (xy 0.082186 0.381759) (xy -0.149969 0.381759)) (width 0.163642))
    ))
  (pad "" smd custom (at 2.0125 -1.15) (size 0.381759 0.381759) (layers F.Paste)
    (options (clearance outline) (anchor circle))
    (primitives
      (gr_poly (pts
         (xy -0.149969 -0.313976) (xy -0.082186 -0.381759) (xy 0.149969 -0.381759) (xy 0.149969 0.381759)
         (xy -0.082186 0.381759) (xy -0.149969 0.313976)) (width 0.163642))
    ))
  (pad "" smd custom (at 2.0125 0) (size 0.381759 0.381759) (layers F.Paste)
    (options (clearance outline) (anchor circle))
    (primitives
      (gr_poly (pts
         (xy -0.149969 -0.313976) (xy -0.082186 -0.381759) (xy 0.149969 -0.381759) (xy 0.149969 0.381759)
         (xy -0.082186 0.381759) (xy -0.149969 0.313976)) (width 0.163642))
    ))
  (pad "" smd custom (at 2.0125 1.15) (size 0.381759 0.381759) (layers F.Paste)
    (options (clearance outline) (anchor circle))
    (primitives
      (gr_poly (pts
         (xy -0.149969 -0.313976) (xy -0.082186 -0.381759) (xy 0.149969 -0.381759) (xy 0.149969 0.381759)
         (xy -0.082186 0.381759) (xy -0.149969 0.313976)) (width 0.163642))
    ))
  (pad "" smd custom (at -1.15 -2.0125) (size 0.381759 0.381759) (layers F.Paste)
    (options (clearance outline) (anchor circle))
    (primitives
      (gr_poly (pts
         (xy -0.381759 -0.149969) (xy 0.381759 -0.149969) (xy 0.381759 0.082186) (xy 0.313976 0.149969)
         (xy -0.313976 0.149969) (xy -0.381759 0.082186)) (width 0.163642))
    ))
  (pad "" smd custom (at 0 -2.0125) (size 0.381759 0.381759) (layers F.Paste)
    (options (clearance outline) (anchor circle))
    (primitives
      (gr_poly (pts
         (xy -0.381759 -0.149969) (xy 0.381759 -0.149969) (xy 0.381759 0.082186) (xy 0.313976 0.149969)
         (xy -0.313976 0.149969) (xy -0.381759 0.082186)) (width 0.163642))
    ))
  (pad "" smd custom (at 1.15 -2.0125) (size 0.381759 0.381759) (layers F.Paste)
    (options (clearance outline) (anchor circle))
    (primitives
      (gr_poly (pts
         (xy -0.381759 -0.149969) (xy 0.381759 -0.149969) (xy 0.381759 0.082186) (xy 0.313976 0.149969)
         (xy -0.313976 0.149969) (xy -0.381759 0.082186)) (width 0.163642))
    ))
  (pad "" smd custom (at -1.15 2.0125) (size 0.381759 0.381759) (layers F.Paste)
    (options (clearance outline) (anchor circle))
    (primitives
      (gr_poly (pts
         (xy -0.381759 -0.082186) (xy -0.313976 -0.149969) (xy 0.313976 -0.149969) (xy 0.381759 -0.082186)
         (xy 0.381759 0.149969) (xy -0.381759 0.149969)) (width 0.163642))
    ))
  (pad "" smd custom (at 0 2.0125) (size 0.381759 0.381759) (layers F.Paste)
    (options (clearance outline) (anchor circle))
    (primitives
      (gr_poly (pts
         (xy -0.381759 -0.082186) (xy -0.313976 -0.149969) (xy 0.313976 -0.149969) (xy 0.381759 -0.082186)
         (xy 0.381759 0.149969) (xy -0.381759 0.149969)) (width 0.163642))
    ))
  (pad "" smd custom (at 1.15 2.0125) (size 0.381759 0.381759) (layers F.Paste)
    (options (clearance outline) (anchor circle))
    (primitives
      (gr_poly (pts
         (xy -0.381759 -0.082186) (xy -0.313976 -0.149969) (xy 0.313976 -0.149969) (xy 0.381759 -0.082186)
         (xy 0.381759 0.149969) (xy -0.381759 0.149969)) (width 0.163642))
    ))
  (pad "" smd custom (at -2.0125 -2.0125) (size 0.342366 0.342366) (layers F.Paste)
    (options (clearance outline) (anchor circle))
    (primitives
      (gr_poly (pts
         (xy -0.115895 -0.115895) (xy 0.115895 -0.115895) (xy 0.115895 0.012362) (xy 0.012362 0.115895)
         (xy -0.115895 0.115895)) (width 0.23179))
    ))
  (pad "" smd custom (at -2.0125 2.0125) (size 0.342366 0.342366) (layers F.Paste)
    (options (clearance outline) (anchor circle))
    (primitives
      (gr_poly (pts
         (xy -0.115895 -0.115895) (xy 0.012362 -0.115895) (xy 0.115895 -0.012362) (xy 0.115895 0.115895)
         (xy -0.115895 0.115895)) (width 0.23179))
    ))
  (pad "" smd custom (at 2.0125 -2.0125) (size 0.342366 0.342366) (layers F.Paste)
    (options (clearance outline) (anchor circle))
    (primitives
      (gr_poly (pts
         (xy -0.115895 -0.115895) (xy 0.115895 -0.115895) (xy 0.115895 0.115895) (xy -0.012362 0.115895)
         (xy -0.115895 0.012362)) (width 0.23179))
    ))
  (pad "" smd custom (at 2.0125 2.0125) (size 0.342366 0.342366) (layers F.Paste)
    (options (clearance outline) (anchor circle))
    (primitives
      (gr_poly (pts
         (xy -0.115895 -0.012362) (xy -0.012362 -0.115895) (xy 0.115895 -0.115895) (xy 0.115895 0.115895)
         (xy -0.115895 0.115895)) (width 0.23179))
    ))
  (fp_poly (pts (xy -3.11 -3.11) (xy -3.29 -3.362) (xy -2.93 -3.362) (xy -3.11 -3.11))
    (stroke (width 0.12) (type solid)) (fill solid) (layer F.SilkS))
  (fp_text user ${REFERENCE} (at 0 0) (layer F.Fab)
    (effects (font (size 1 1) (thickness 0.15)))
  )
  (model ${KICAD7_3DMODEL_DIR}/Package_DFN_QFN.3dshapes/Texas_RHA_VQFN-40-1EP_6x6mm_P0.5mm_EP4.6x4.6mm.wrl
    (offset (xyz 0 0 0))
    (scale (xyz 1 1 1))
    (rotate (xyz 0 0 0))
  )
)
