(footprint TQFN-24-1EP_4x4mm_P0.5mm_EP2.8x2.8mm_PullBack (version 20221018) (generator kicad-footprint-generator)
  (layer F.Cu)
  (descr "TQFN, 24 Pin (https://ams.com/documents/20143/36005/AS1115_DS000206_1-00.pdf), generated with kicad-footprint-generator ipc_noLead_generator.py")
  (tags "TQFN NoLead")
  (attr smd)
  (fp_text reference REF** (at 0 -2.95) (layer F.SilkS)
    (effects (font (size 1 1) (thickness 0.15)))
  )
  (fp_text value TQFN-24-1EP_4x4mm_P0.5mm_EP2.8x2.8mm_PullBack (at 0 2.95) (layer F.Fab)
    (effects (font (size 1 1) (thickness 0.15)))
  )
  (fp_line (start -2.11 -1.71) (end -2.11 -1.87)
    (stroke (width 0.12) (type solid)) (layer F.SilkS))
  (fp_line (start 1.71 -2.11) (end 2.11 -2.11)
    (stroke (width 0.12) (type solid)) (layer F.SilkS))
  (fp_line (start 2.11 -2.11) (end 2.11 -1.71)
    (stroke (width 0.12) (type solid)) (layer F.SilkS))
  (fp_line (start -1.71 2.11) (end -2.11 2.11)
    (stroke (width 0.12) (type solid)) (layer F.SilkS))
  (fp_line (start -2.11 2.11) (end -2.11 1.71)
    (stroke (width 0.12) (type solid)) (layer F.SilkS))
  (fp_line (start 1.71 2.11) (end 2.11 2.11)
    (stroke (width 0.12) (type solid)) (layer F.SilkS))
  (fp_line (start 2.11 2.11) (end 2.11 1.71)
    (stroke (width 0.12) (type solid)) (layer F.SilkS))
  (fp_line (start -1 -2) (end 2 -2)
    (stroke (width 0.1) (type solid)) (layer F.Fab))
  (fp_line (start 2 -2) (end 2 2)
    (stroke (width 0.1) (type solid)) (layer F.Fab))
  (fp_line (start 2 2) (end -2 2)
    (stroke (width 0.1) (type solid)) (layer F.Fab))
  (fp_line (start -2 2) (end -2 -1)
    (stroke (width 0.1) (type solid)) (layer F.Fab))
  (fp_line (start -2 -1) (end -1 -2)
    (stroke (width 0.1) (type solid)) (layer F.Fab))
  (fp_line (start -2.25 -2.25) (end -2.25 2.25)
    (stroke (width 0.05) (type solid)) (layer F.CrtYd))
  (fp_line (start -2.25 2.25) (end 2.25 2.25)
    (stroke (width 0.05) (type solid)) (layer F.CrtYd))
  (fp_line (start 2.25 2.25) (end 2.25 -2.25)
    (stroke (width 0.05) (type solid)) (layer F.CrtYd))
  (fp_line (start 2.25 -2.25) (end -2.25 -2.25)
    (stroke (width 0.05) (type solid)) (layer F.CrtYd))
  (pad 1 smd roundrect (at -1.8 -1.25) (size 0.4 0.4) (layers F.Cu F.Mask F.Paste) (roundrect_rratio 0.25))
  (pad 2 smd roundrect (at -1.8 -0.75) (size 0.4 0.4) (layers F.Cu F.Mask F.Paste) (roundrect_rratio 0.25))
  (pad 3 smd roundrect (at -1.8 -0.25) (size 0.4 0.4) (layers F.Cu F.Mask F.Paste) (roundrect_rratio 0.25))
  (pad 4 smd roundrect (at -1.8 0.25) (size 0.4 0.4) (layers F.Cu F.Mask F.Paste) (roundrect_rratio 0.25))
  (pad 5 smd roundrect (at -1.8 0.75) (size 0.4 0.4) (layers F.Cu F.Mask F.Paste) (roundrect_rratio 0.25))
  (pad 6 smd roundrect (at -1.8 1.25) (size 0.4 0.4) (layers F.Cu F.Mask F.Paste) (roundrect_rratio 0.25))
  (pad 7 smd roundrect (at -1.25 1.8) (size 0.4 0.4) (layers F.Cu F.Mask F.Paste) (roundrect_rratio 0.25))
  (pad 8 smd roundrect (at -0.75 1.8) (size 0.4 0.4) (layers F.Cu F.Mask F.Paste) (roundrect_rratio 0.25))
  (pad 9 smd roundrect (at -0.25 1.8) (size 0.4 0.4) (layers F.Cu F.Mask F.Paste) (roundrect_rratio 0.25))
  (pad 10 smd roundrect (at 0.25 1.8) (size 0.4 0.4) (layers F.Cu F.Mask F.Paste) (roundrect_rratio 0.25))
  (pad 11 smd roundrect (at 0.75 1.8) (size 0.4 0.4) (layers F.Cu F.Mask F.Paste) (roundrect_rratio 0.25))
  (pad 12 smd roundrect (at 1.25 1.8) (size 0.4 0.4) (layers F.Cu F.Mask F.Paste) (roundrect_rratio 0.25))
  (pad 13 smd roundrect (at 1.8 1.25) (size 0.4 0.4) (layers F.Cu F.Mask F.Paste) (roundrect_rratio 0.25))
  (pad 14 smd roundrect (at 1.8 0.75) (size 0.4 0.4) (layers F.Cu F.Mask F.Paste) (roundrect_rratio 0.25))
  (pad 15 smd roundrect (at 1.8 0.25) (size 0.4 0.4) (layers F.Cu F.Mask F.Paste) (roundrect_rratio 0.25))
  (pad 16 smd roundrect (at 1.8 -0.25) (size 0.4 0.4) (layers F.Cu F.Mask F.Paste) (roundrect_rratio 0.25))
  (pad 17 smd roundrect (at 1.8 -0.75) (size 0.4 0.4) (layers F.Cu F.Mask F.Paste) (roundrect_rratio 0.25))
  (pad 18 smd roundrect (at 1.8 -1.25) (size 0.4 0.4) (layers F.Cu F.Mask F.Paste) (roundrect_rratio 0.25))
  (pad 19 smd roundrect (at 1.25 -1.8) (size 0.4 0.4) (layers F.Cu F.Mask F.Paste) (roundrect_rratio 0.25))
  (pad 20 smd roundrect (at 0.75 -1.8) (size 0.4 0.4) (layers F.Cu F.Mask F.Paste) (roundrect_rratio 0.25))
  (pad 21 smd roundrect (at 0.25 -1.8) (size 0.4 0.4) (layers F.Cu F.Mask F.Paste) (roundrect_rratio 0.25))
  (pad 22 smd roundrect (at -0.25 -1.8) (size 0.4 0.4) (layers F.Cu F.Mask F.Paste) (roundrect_rratio 0.25))
  (pad 23 smd roundrect (at -0.75 -1.8) (size 0.4 0.4) (layers F.Cu F.Mask F.Paste) (roundrect_rratio 0.25))
  (pad 24 smd roundrect (at -1.25 -1.8) (size 0.4 0.4) (layers F.Cu F.Mask F.Paste) (roundrect_rratio 0.25))
  (pad 25 smd rect (at 0 0) (size 2.8 2.8) (property pad_prop_heatsink) (layers F.Cu F.Mask)
    (zone_connect 2))
  (pad "" smd roundrect (at -0.7 -0.7) (size 1.13 1.13) (layers F.Paste) (roundrect_rratio 0.221239))
  (pad "" smd roundrect (at -0.7 0.7) (size 1.13 1.13) (layers F.Paste) (roundrect_rratio 0.221239))
  (pad "" smd roundrect (at 0.7 -0.7) (size 1.13 1.13) (layers F.Paste) (roundrect_rratio 0.221239))
  (pad "" smd roundrect (at 0.7 0.7) (size 1.13 1.13) (layers F.Paste) (roundrect_rratio 0.221239))
  (fp_poly (pts (xy -2.11 -2.11) (xy -2.29 -2.362) (xy -1.93 -2.362) (xy -2.11 -2.11))
    (stroke (width 0.12) (type solid)) (fill solid) (layer F.SilkS))
  (fp_text user ${REFERENCE} (at 0 0) (layer F.Fab)
    (effects (font (size 1 1) (thickness 0.15)))
  )
  (model ${KICAD7_3DMODEL_DIR}/Package_DFN_QFN.3dshapes/TQFN-24-1EP_4x4mm_P0.5mm_EP2.8x2.8mm_PullBack.wrl
    (offset (xyz 0 0 0))
    (scale (xyz 1 1 1))
    (rotate (xyz 0 0 0))
  )
)
